EESchema Schematic File Version 4
EELAYER 30 0
EELAYER END
$Descr User 17000 11000
encoding utf-8
Sheet 1 1
Title "M10DO01"
Date "2020-09-29"
Rev "01"
Comp "M10CUBE"
Comment1 ""
Comment2 ""
Comment3 ""
Comment4 "8 x Digital Outputs (Relay 16A)"
$EndDescr
$Comp
L Mechanical:MountingHole H4
U 1 1 5F669B29
P 15225 1875
F 0 "H4" H 15325 1921 50  0000 L CNN
F 1 "MountingHole" H 15325 1830 50  0000 L CNN
F 2 "MountingHole:MountingHole_3.5mm_Pad_Via" H 15225 1875 50  0001 C CNN
F 3 "~" H 15225 1875 50  0001 C CNN
	1    15225 1875
	1    0    0    -1  
$EndComp
$Comp
L Mechanical:MountingHole H3
U 1 1 5F668E2C
P 15225 1600
F 0 "H3" H 15325 1646 50  0000 L CNN
F 1 "MountingHole" H 15325 1555 50  0000 L CNN
F 2 "MountingHole:MountingHole_3.5mm_Pad_Via" H 15225 1600 50  0001 C CNN
F 3 "~" H 15225 1600 50  0001 C CNN
	1    15225 1600
	1    0    0    -1  
$EndComp
$Comp
L Mechanical:MountingHole H2
U 1 1 5F668877
P 15225 1350
F 0 "H2" H 15325 1396 50  0000 L CNN
F 1 "MountingHole" H 15325 1305 50  0000 L CNN
F 2 "MountingHole:MountingHole_3.5mm_Pad_Via" H 15225 1350 50  0001 C CNN
F 3 "~" H 15225 1350 50  0001 C CNN
	1    15225 1350
	1    0    0    -1  
$EndComp
$Comp
L Mechanical:MountingHole H1
U 1 1 5F6676D5
P 15225 1100
F 0 "H1" H 15325 1146 50  0000 L CNN
F 1 "MountingHole" H 15325 1055 50  0000 L CNN
F 2 "MountingHole:MountingHole_3.5mm_Pad_Via" H 15225 1100 50  0001 C CNN
F 3 "~" H 15225 1100 50  0001 C CNN
	1    15225 1100
	1    0    0    -1  
$EndComp
Wire Wire Line
	3250 3275 2850 3275
Text Label 2850 3275 0    70   ~ 0
SCL
Wire Wire Line
	4250 925  4950 925 
Text Label 4450 925  0    70   ~ 0
SCL
Wire Wire Line
	3250 3375 2850 3375
Text Label 2850 3375 0    70   ~ 0
SDA
Wire Wire Line
	4250 1225 4950 1225
Text Label 4450 1225 0    70   ~ 0
SDA
Wire Wire Line
	3250 2875 2750 2875
Text Label 2750 2875 0    70   ~ 0
I2C_INT
Wire Wire Line
	4250 1825 4950 1825
Text Label 4450 1825 0    70   ~ 0
I2C_INT
Wire Wire Line
	4250 1525 4950 1525
Text Label 4450 1525 0    70   ~ 0
I2C_RES
Wire Wire Line
	3250 2575 2750 2575
Text Label 2750 2575 0    70   ~ 0
I2C_RES
Wire Wire Line
	9550 3175 8750 3175
Wire Wire Line
	10650 1625 10350 1625
Wire Wire Line
	10350 1625 9550 1625
Wire Wire Line
	9550 1625 9550 2375
Wire Wire Line
	9550 2375 9550 2975
Wire Wire Line
	9550 2975 9550 3175
Wire Wire Line
	9550 3175 9550 3575
Wire Wire Line
	9550 3575 9550 4175
Wire Wire Line
	9550 4175 9550 4775
Wire Wire Line
	9550 4775 9550 5375
Wire Wire Line
	9550 5375 9550 5975
Wire Wire Line
	10350 1825 10350 1625
Wire Wire Line
	10350 2425 10350 2375
Wire Wire Line
	10350 2375 9550 2375
Wire Wire Line
	10350 3025 10350 2975
Wire Wire Line
	10350 2975 9550 2975
Wire Wire Line
	10350 3625 10350 3575
Wire Wire Line
	10350 3575 9550 3575
Wire Wire Line
	10350 4225 10350 4175
Wire Wire Line
	10350 4175 9550 4175
Wire Wire Line
	10350 4825 10350 4775
Wire Wire Line
	10350 4775 9550 4775
Wire Wire Line
	10350 5425 10350 5375
Wire Wire Line
	10350 5375 9550 5375
Wire Wire Line
	10350 6025 10350 5975
Wire Wire Line
	10350 5975 9550 5975
Connection ~ 9550 3175
Text Label 10650 1625 0    70   ~ 0
24V
Connection ~ 10350 1625
Connection ~ 9550 2375
Connection ~ 9550 2975
Connection ~ 9550 3575
Connection ~ 9550 4175
Connection ~ 9550 4775
Connection ~ 9550 5375
Wire Wire Line
	11800 8175 11800 7975
Wire Wire Line
	11800 7975 10750 7975
Wire Wire Line
	10900 7375 10750 7375
Wire Wire Line
	10750 7375 10750 7975
Wire Wire Line
	10750 7975 10450 7975
Connection ~ 10750 7975
Text Label 10450 7975 2    70   ~ 0
24V
Wire Wire Line
	4250 2375 4750 2375
Text Label 4350 2375 0    70   ~ 0
OUT1
Wire Wire Line
	7250 2375 7750 2375
Text Label 7250 2375 0    70   ~ 0
OUT1
Wire Wire Line
	4250 2475 4750 2475
Text Label 4350 2475 0    70   ~ 0
OUT2
Wire Wire Line
	7250 2475 7750 2475
Text Label 7250 2475 0    70   ~ 0
OUT2
Wire Wire Line
	4250 2575 4750 2575
Text Label 4350 2575 0    70   ~ 0
OUT3
Wire Wire Line
	7250 2575 7750 2575
Text Label 7250 2575 0    70   ~ 0
OUT3
Wire Wire Line
	4250 2675 4750 2675
Text Label 4350 2675 0    70   ~ 0
OUT4
Wire Wire Line
	7250 2675 7750 2675
Text Label 7250 2675 0    70   ~ 0
OUT4
Wire Wire Line
	4250 2775 4750 2775
Text Label 4350 2775 0    70   ~ 0
OUT5
Wire Wire Line
	7750 2775 7250 2775
Text Label 7250 2775 0    70   ~ 0
OUT5
Wire Wire Line
	4250 2875 4750 2875
Text Label 4350 2875 0    70   ~ 0
OUT6
Wire Wire Line
	7750 2875 7250 2875
Text Label 7250 2875 0    70   ~ 0
OUT6
Wire Wire Line
	4250 2975 4750 2975
Text Label 4350 2975 0    70   ~ 0
OUT7
Wire Wire Line
	7750 2975 7250 2975
Text Label 7250 2975 0    70   ~ 0
OUT7
Wire Wire Line
	4250 3075 4750 3075
Text Label 4350 3075 0    70   ~ 0
OUT8
Wire Wire Line
	7750 3075 7250 3075
Text Label 7250 3075 0    70   ~ 0
OUT8
Wire Wire Line
	3250 3575 2250 3575
Wire Wire Line
	2250 3575 1650 3575
Wire Wire Line
	2250 3475 2250 3575
Wire Wire Line
	2450 3875 2450 3825
Wire Wire Line
	2450 3825 2250 3825
Wire Wire Line
	2250 3825 2250 3575
Text Label 1650 3575 0    70   ~ 0
A0
Connection ~ 2250 3575
Wire Wire Line
	3250 3675 2150 3675
Wire Wire Line
	2150 3675 1650 3675
Wire Wire Line
	2150 3475 2150 3675
Wire Wire Line
	2150 3875 2150 3675
Text Label 1650 3675 0    70   ~ 0
A1
Connection ~ 2150 3675
Wire Wire Line
	3250 3775 2050 3775
Wire Wire Line
	2050 3775 1650 3775
Wire Wire Line
	2050 3475 2050 3775
Wire Wire Line
	1850 3875 1850 3825
Wire Wire Line
	1850 3825 2050 3825
Wire Wire Line
	2050 3825 2050 3775
Text Label 1650 3775 0    70   ~ 0
A2
Connection ~ 2050 3775
Wire Wire Line
	11900 8775 13400 8775
Wire Wire Line
	13200 8175 13400 8175
Wire Wire Line
	13400 8175 13400 8475
Wire Wire Line
	13400 8475 13200 8475
Wire Wire Line
	13400 8475 13900 8475
Wire Wire Line
	13400 8775 13400 8475
Text Label 12800 8775 0    70   ~ 0
GND1
Connection ~ 13400 8475
Text Label 13600 8475 0    70   ~ 0
GND1
Wire Wire Line
	15000 8475 15200 8475
Wire Wire Line
	15200 8475 15800 8475
Wire Wire Line
	15000 8175 15200 8175
Wire Wire Line
	15200 8175 15200 8475
Connection ~ 15200 8475
Text Label 15500 8475 0    70   ~ 0
GND1
Wire Wire Line
	3250 2375 2850 2375
Text Label 2850 2375 0    70   ~ 0
I_5V
Wire Wire Line
	1950 2875 1950 2775
Wire Wire Line
	1950 2775 1650 2775
Wire Wire Line
	1950 2775 2050 2775
Wire Wire Line
	2050 2775 2150 2775
Wire Wire Line
	2150 2775 2250 2775
Wire Wire Line
	2250 2775 2250 2875
Wire Wire Line
	2050 2875 2050 2775
Wire Wire Line
	2150 2875 2150 2775
Connection ~ 1950 2775
Connection ~ 2050 2775
Connection ~ 2150 2775
Text Label 1650 2775 0    70   ~ 0
I_5V
Wire Wire Line
	3850 1825 3450 1825
Wire Wire Line
	3450 1825 3450 1525
Wire Wire Line
	3450 1525 3450 1225
Wire Wire Line
	3450 1225 3450 925 
Wire Wire Line
	3450 925  3050 925 
Wire Wire Line
	3850 925  3450 925 
Wire Wire Line
	3850 1225 3450 1225
Wire Wire Line
	3850 1525 3450 1525
Wire Wire Line
	3450 1825 3050 1825
Connection ~ 3450 925 
Connection ~ 3450 1225
Connection ~ 3450 1525
Text Label 3050 925  0    70   ~ 0
I_5V
Connection ~ 3450 1825
Text Label 3050 1825 0    70   ~ 0
I_5V
Wire Wire Line
	5550 1325 6050 1325
Wire Wire Line
	6050 1325 6450 1325
Wire Wire Line
	6050 1425 6050 1325
Connection ~ 6050 1325
Text Label 5550 1325 0    70   ~ 0
I_5V
Wire Wire Line
	5300 3425 5050 3425
Text Label 5050 3425 0    70   ~ 0
I_5V
Wire Wire Line
	4550 7175 5050 7175
Wire Wire Line
	5050 7175 5050 6975
Wire Wire Line
	5750 7075 5750 6975
Wire Wire Line
	5750 6975 6050 6975
Wire Wire Line
	6050 6975 6600 6975
Wire Wire Line
	6050 7075 6050 6975
Wire Wire Line
	5050 6975 5450 6975
Wire Wire Line
	5450 6975 5750 6975
Wire Wire Line
	5450 7075 5450 6975
Text Label 4850 7175 0    70   ~ 0
3V3
Connection ~ 6050 6975
Text Label 6350 6975 0    70   ~ 0
3V3
Connection ~ 5750 6975
Connection ~ 5450 6975
Wire Wire Line
	4200 8125 3850 8125
Text Label 3850 8125 0    70   ~ 0
3V3
Wire Wire Line
	6050 7775 6600 7775
Wire Wire Line
	6050 7475 6050 7775
Wire Wire Line
	4550 7775 6050 7775
Text Label 4900 7775 0    70   ~ 0
ID_SDA
Text Label 6250 7775 0    70   ~ 0
ID_SDA
Connection ~ 6050 7775
Wire Wire Line
	4550 7575 5750 7575
Wire Wire Line
	5750 7575 5750 7475
Wire Wire Line
	5750 7575 6600 7575
Text Label 4900 7575 0    70   ~ 0
ID_SCL
Text Label 6250 7575 0    70   ~ 0
ID_SCL
Connection ~ 5750 7575
Wire Wire Line
	4550 7375 4750 7375
Wire Wire Line
	4750 7375 4750 8125
Wire Wire Line
	4750 8125 5000 8125
Wire Wire Line
	4750 8125 4600 8125
Wire Wire Line
	4650 8525 4750 8525
Wire Wire Line
	4750 8525 4750 8125
Connection ~ 4750 8125
Wire Wire Line
	5150 2375 5300 2375
Wire Wire Line
	5150 2475 5300 2475
Wire Wire Line
	5150 2575 5300 2575
Wire Wire Line
	5150 2675 5300 2675
Wire Wire Line
	5150 2775 5300 2775
Wire Wire Line
	5150 2875 5300 2875
Wire Wire Line
	5150 2975 5300 2975
Wire Wire Line
	5150 3075 5300 3075
Wire Wire Line
	3250 3975 2850 3975
Text Label 2850 3975 0    70   ~ 0
GND
Wire Wire Line
	1250 4375 1550 4375
Wire Wire Line
	1550 4275 1550 4375
Wire Wire Line
	1550 4375 1850 4375
Wire Wire Line
	1850 4375 2150 4375
Wire Wire Line
	2150 4375 2450 4375
Wire Wire Line
	2450 4375 2550 4375
Wire Wire Line
	2150 4275 2150 4375
Wire Wire Line
	1850 4275 1850 4375
Wire Wire Line
	2450 4275 2450 4375
Connection ~ 1550 4375
Text Label 1275 4375 0    70   ~ 0
GND
Connection ~ 2150 4375
Connection ~ 1850 4375
Connection ~ 2450 4375
Wire Wire Line
	3350 7375 3350 7575
Wire Wire Line
	3350 7575 3350 7775
Wire Wire Line
	3350 7775 3350 7975
Wire Wire Line
	3650 7375 3350 7375
Wire Wire Line
	3650 7575 3350 7575
Wire Wire Line
	3650 7775 3350 7775
Connection ~ 3350 7575
Connection ~ 3350 7775
Text Label 3650 7175 0    10   ~ 0
GND
Wire Wire Line
	4650 8625 5600 8625
Wire Wire Line
	5600 8625 5600 8125
Wire Wire Line
	5600 8125 5400 8125
Wire Wire Line
	5600 8125 6050 8125
Connection ~ 5600 8125
Text Label 5800 8125 0    70   ~ 0
GND
Wire Wire Line
	5550 1825 6050 1825
Wire Wire Line
	6050 1825 6450 1825
Wire Wire Line
	6050 1725 6050 1825
Connection ~ 6050 1825
Text Label 5550 1825 0    70   ~ 0
GND
Wire Wire Line
	5300 3275 5050 3275
Text Label 5050 3275 0    70   ~ 0
GND
Text Label 12300 8675 0    70   ~ 0
GND
Wire Wire Line
	7250 3175 7750 3175
Wire Wire Line
	7250 3375 7250 3175
Text Label 7250 3175 0    10   ~ 0
GND
Wire Wire Line
	11700 7375 13400 7375
Wire Wire Line
	13400 7375 13400 7575
Wire Wire Line
	13200 7875 13400 7875
Wire Wire Line
	13400 7875 13400 7575
Wire Wire Line
	13400 7575 13200 7575
Wire Wire Line
	13400 7575 13900 7575
Text Label 11850 7375 0    70   ~ 0
24V_IN
Connection ~ 13400 7575
Text Label 13600 7575 0    70   ~ 0
24V_IN
Wire Wire Line
	15000 7575 15200 7575
Wire Wire Line
	15200 7575 15800 7575
Wire Wire Line
	15000 7875 15200 7875
Wire Wire Line
	15200 7875 15200 7575
Connection ~ 15200 7575
Text Label 15500 7575 0    70   ~ 0
24V_IN
Wire Wire Line
	11500 7375 11300 7375
Wire Wire Line
	9150 2375 8750 2375
Text Label 8900 2375 0    70   ~ 0
REL_1
Wire Wire Line
	10350 2225 10350 2275
Wire Wire Line
	10350 2275 9850 2275
Text Label 9850 2275 0    70   ~ 0
REL_1
Wire Wire Line
	9150 2475 8750 2475
Text Label 8900 2475 0    70   ~ 0
REL_2
Wire Wire Line
	10350 2825 10350 2875
Wire Wire Line
	10350 2875 9850 2875
Text Label 9850 2875 0    70   ~ 0
REL_2
Wire Wire Line
	9150 2575 8750 2575
Text Label 8900 2575 0    70   ~ 0
REL_3
Wire Wire Line
	10350 3425 10350 3475
Wire Wire Line
	10350 3475 9850 3475
Text Label 9850 3475 0    70   ~ 0
REL_3
Wire Wire Line
	9150 2675 8750 2675
Text Label 8900 2675 0    70   ~ 0
REL_4
Wire Wire Line
	10350 4025 10350 4075
Wire Wire Line
	10350 4075 9850 4075
Text Label 9850 4075 0    70   ~ 0
REL_4
Wire Wire Line
	8750 2775 9150 2775
Text Label 8900 2775 0    70   ~ 0
REL_5
Wire Wire Line
	10350 4625 10350 4675
Wire Wire Line
	10350 4675 9850 4675
Text Label 9850 4675 0    70   ~ 0
REL_5
Wire Wire Line
	8750 2875 9150 2875
Text Label 8900 2875 0    70   ~ 0
REL_6
Wire Wire Line
	10350 5225 10350 5275
Wire Wire Line
	10350 5275 9850 5275
Text Label 9850 5275 0    70   ~ 0
REL_6
Wire Wire Line
	8750 2975 9150 2975
Text Label 8900 2975 0    70   ~ 0
REL_7
Wire Wire Line
	10350 5825 10350 5875
Wire Wire Line
	10350 5875 9850 5875
Text Label 9850 5875 0    70   ~ 0
REL_7
Wire Wire Line
	8750 3075 9150 3075
Text Label 8900 3075 0    70   ~ 0
REL_8
Wire Wire Line
	10350 6425 10350 6475
Wire Wire Line
	10350 6475 9850 6475
Text Label 9850 6475 0    70   ~ 0
REL_8
Wire Wire Line
	11050 1825 10950 1825
Wire Wire Line
	11050 2225 10950 2225
Wire Wire Line
	11050 2425 10950 2425
Wire Wire Line
	10950 2825 11050 2825
Wire Wire Line
	11050 3025 10950 3025
Wire Wire Line
	11050 3425 10950 3425
Wire Wire Line
	11050 3625 10950 3625
Wire Wire Line
	11050 4025 10950 4025
Wire Wire Line
	11050 4825 10950 4825
Wire Wire Line
	11050 5225 10950 5225
Wire Wire Line
	11050 5425 10950 5425
Wire Wire Line
	11050 5825 10950 5825
Wire Wire Line
	11050 6025 10950 6025
Wire Wire Line
	11050 6425 10950 6425
Wire Wire Line
	11050 4275 10950 4275
Wire Wire Line
	11050 4675 10950 4675
$Comp
L M10DO01-01-rescue:MCP23017SS-Relais-Modul_a-eagle-import-m10-do-01-1-rescue-M10DO01-01-rescue IC1
U 1 1 06F92037
P 3750 3175
F 0 "IC1" H 3350 4125 59  0000 L BNN
F 1 "MCP23017SS" H 3350 2175 59  0000 L BNN
F 2 "M10DO01-01:SSOP28" H 3750 3175 50  0001 C CNN
F 3 "" H 3750 3175 50  0001 C CNN
	1    3750 3175
	1    0    0    -1  
$EndComp
$Comp
L M10DO01-01-rescue:SW_DIP-4-Relais-Modul_a-eagle-import-m10-do-01-1-rescue-M10DO01-01-rescue SW1
U 1 1 E9E31E47
P 2150 3175
F 0 "SW1" H 1950 3400 59  0000 L BNN
F 1 "SW_DIP-4" H 1950 2775 59  0000 L BNN
F 2 "M10DO01-01:EDG-04" H 2150 3175 50  0001 C CNN
F 3 "" H 2150 3175 50  0001 C CNN
	1    2150 3175
	0    1    1    0   
$EndComp
$Comp
L M10DO01-01-rescue:RES_ARRAY-Relais-Modul_a-eagle-import-m10-do-01-1-rescue-M10DO01-01-rescue RA1
U 1 1 EC275C0C
P 1850 4075
F 0 "RA1" H 1700 4134 59  0000 L BNN
F 1 "10k" H 1700 3945 59  0000 L BNN
F 2 "Resistor_SMD:R_Array_Convex_4x1206" H 1850 4075 50  0001 C CNN
F 3 "" H 1850 4075 50  0001 C CNN
	1    1850 4075
	0    -1   -1   0   
$EndComp
$Comp
L M10DO01-01-rescue:RES_ARRAY-Relais-Modul_a-eagle-import-m10-do-01-1-rescue-M10DO01-01-rescue RA1
U 2 1 EC275C00
P 2150 4075
F 0 "RA1" H 2000 4134 59  0000 L BNN
F 1 "10k" H 2000 3945 59  0000 L BNN
F 2 "Resistor_SMD:R_Array_Convex_4x1206" H 2150 4075 50  0001 C CNN
F 3 "" H 2150 4075 50  0001 C CNN
	2    2150 4075
	0    -1   -1   0   
$EndComp
$Comp
L M10DO01-01-rescue:RES_ARRAY-Relais-Modul_a-eagle-import-m10-do-01-1-rescue-M10DO01-01-rescue RA1
U 3 1 EC275C04
P 2450 4075
F 0 "RA1" H 2300 4134 59  0000 L BNN
F 1 "10k" H 2300 3945 59  0000 L BNN
F 2 "Resistor_SMD:R_Array_Convex_4x1206" H 2450 4075 50  0001 C CNN
F 3 "" H 2450 4075 50  0001 C CNN
	3    2450 4075
	0    -1   -1   0   
$EndComp
$Comp
L M10DO01-01-rescue:RES_ARRAY-Relais-Modul_a-eagle-import-m10-do-01-1-rescue-M10DO01-01-rescue RA1
U 4 1 EC275C18
P 1550 4075
F 0 "RA1" H 1400 4134 59  0000 L BNN
F 1 "10k" H 1400 3945 59  0000 L BNN
F 2 "Resistor_SMD:R_Array_Convex_4x1206" H 1550 4075 50  0001 C CNN
F 3 "" H 1550 4075 50  0001 C CNN
	4    1550 4075
	0    -1   -1   0   
$EndComp
$Comp
L M10DO01-01-rescue:C-EUC0805-Relais-Modul_a-eagle-import-m10-do-01-1-rescue-M10DO01-01-rescue C1
U 1 1 218CB388
P 6050 1525
F 0 "C1" H 6110 1540 59  0000 L BNN
F 1 "100n" H 6110 1340 59  0000 L BNN
F 2 "Capacitor_SMD:C_0805_2012Metric_Pad1.15x1.40mm_HandSolder" H 6050 1525 50  0001 C CNN
F 3 "" H 6050 1525 50  0001 C CNN
	1    6050 1525
	1    0    0    -1  
$EndComp
$Comp
L M10DO01-01-rescue:CPOL-EUF-Relais-Modul_a-eagle-import-m10-do-01-1-rescue-M10DO01-01-rescue C10
U 1 1 063C1451
P 11800 8275
F 0 "C10" H 11845 8294 59  0000 L BNN
F 1 "47µ / 35V" H 11845 8094 59  0001 L BNN
F 2 "M10DO01-01:PANASONIC_F" H 11800 8275 50  0001 C CNN
F 3 "" H 11800 8275 50  0001 C CNN
	1    11800 8275
	1    0    0    -1  
$EndComp
$Comp
L M10DO01-01-rescue:R-EU_R0603-Relais-Modul_a-eagle-import-m10-do-01-1-rescue-M10DO01-01-rescue R9
U 1 1 79878D31
P 4050 925
F 0 "R9" H 3900 984 59  0000 L BNN
F 1 "NB" H 4200 995 59  0000 L BNN
F 2 "Resistor_SMD:R_0805_2012Metric_Pad1.15x1.40mm_HandSolder" H 4050 925 50  0001 C CNN
F 3 "" H 4050 925 50  0001 C CNN
	1    4050 925 
	1    0    0    -1  
$EndComp
$Comp
L M10DO01-01-rescue:R-EU_R0603-Relais-Modul_a-eagle-import-m10-do-01-1-rescue-M10DO01-01-rescue R10
U 1 1 2E639911
P 4050 1225
F 0 "R10" H 3900 1284 59  0000 L BNN
F 1 "NB" H 4200 1295 59  0000 L BNN
F 2 "Resistor_SMD:R_0805_2012Metric_Pad1.15x1.40mm_HandSolder" H 4050 1225 50  0001 C CNN
F 3 "" H 4050 1225 50  0001 C CNN
	1    4050 1225
	1    0    0    -1  
$EndComp
$Comp
L M10DO01-01-rescue:R-EU_R0603-Relais-Modul_a-eagle-import-m10-do-01-1-rescue-M10DO01-01-rescue R19
U 1 1 69523DA1
P 4050 1525
F 0 "R19" H 3900 1584 59  0000 L BNN
F 1 "0" H 4200 1595 59  0000 L BNN
F 2 "Resistor_SMD:R_0805_2012Metric_Pad1.15x1.40mm_HandSolder" H 4050 1525 50  0001 C CNN
F 3 "" H 4050 1525 50  0001 C CNN
	1    4050 1525
	1    0    0    -1  
$EndComp
$Comp
L M10DO01-01-rescue:R-EU_R0603-Relais-Modul_a-eagle-import-m10-do-01-1-rescue-M10DO01-01-rescue R20
U 1 1 818B1D88
P 4050 1825
F 0 "R20" H 3900 1884 59  0000 L BNN
F 1 "NB" H 4200 1895 59  0000 L BNN
F 2 "Resistor_SMD:R_0805_2012Metric_Pad1.15x1.40mm_HandSolder" H 4050 1825 50  0001 C CNN
F 3 "" H 4050 1825 50  0001 C CNN
	1    4050 1825
	1    0    0    -1  
$EndComp
$Comp
L M10DO01-01-rescue:RESISTORMARKED-0603-Relais-Modul_a-eagle-import-m10-do-01-1-rescue-M10DO01-01-rescue R21
U 1 1 9DD4332C
P 6050 7275
F 0 "R21" H 5900 7334 59  0000 L BNN
F 1 "10k" H 5900 7145 59  0000 L BNN
F 2 "Resistor_SMD:R_0805_2012Metric_Pad1.15x1.40mm_HandSolder" H 6050 7275 50  0001 C CNN
F 3 "" H 6050 7275 50  0001 C CNN
	1    6050 7275
	0    -1   -1   0   
$EndComp
$Comp
L M10DO01-01-rescue:RESISTORMARKED-0603-Relais-Modul_a-eagle-import-m10-do-01-1-rescue-M10DO01-01-rescue R22
U 1 1 4920326A
P 5750 7275
F 0 "R22" H 5600 7334 59  0000 L BNN
F 1 "10k" H 5600 7145 59  0000 L BNN
F 2 "Resistor_SMD:R_0805_2012Metric_Pad1.15x1.40mm_HandSolder" H 5750 7275 50  0001 C CNN
F 3 "" H 5750 7275 50  0001 C CNN
	1    5750 7275
	0    -1   -1   0   
$EndComp
$Comp
L M10DO01-01-rescue:GND-Relais-Modul_a-eagle-import-m10-do-01-1-rescue-M10DO01-01-rescue #GND05
U 1 1 EF27308A
P 5450 7475
F 0 "#GND05" H 5450 7475 50  0001 C CNN
F 1 "GND" H 5350 7375 59  0000 L BNN
F 2 "" H 5450 7475 50  0001 C CNN
F 3 "" H 5450 7475 50  0001 C CNN
	1    5450 7475
	1    0    0    -1  
$EndComp
$Comp
L M10DO01-01-rescue:FM24C16-Relais-Modul_a-eagle-import-m10-do-01-1-rescue-M10DO01-01-rescue IC2
U 1 1 90F8467C
P 4150 7475
F 0 "IC2" H 3750 7875 59  0000 L BNN
F 1 "AT24C32" H 3750 6975 59  0000 L BNN
F 2 "M10DO01-01:EIAJ-SOIC-8" H 4150 7475 50  0001 C CNN
F 3 "" H 4150 7475 50  0001 C CNN
	1    4150 7475
	1    0    0    -1  
$EndComp
$Comp
L M10DO01-01-rescue:GND-Relais-Modul_a-eagle-import-m10-do-01-1-rescue-M10DO01-01-rescue #GND07
U 1 1 9CDE76EF
P 3350 8075
F 0 "#GND07" H 3350 8075 50  0001 C CNN
F 1 "GND" H 3250 7975 59  0000 L BNN
F 2 "" H 3350 8075 50  0001 C CNN
F 3 "" H 3350 8075 50  0001 C CNN
	1    3350 8075
	1    0    0    -1  
$EndComp
$Comp
L M10DO01-01-rescue:CAPMARKED-0603-Relais-Modul_a-eagle-import-m10-do-01-1-rescue-M10DO01-01-rescue C11
U 1 1 892386DA
P 5450 7275
F 0 "C11" H 5510 7390 59  0000 L BNN
F 1 "0.1uF" H 5510 7190 59  0000 L BNN
F 2 "Capacitor_SMD:C_0805_2012Metric_Pad1.15x1.40mm_HandSolder" H 5450 7275 50  0001 C CNN
F 3 "" H 5450 7275 50  0001 C CNN
	1    5450 7275
	-1   0    0    -1  
$EndComp
$Comp
L M10DO01-01-rescue:R-EU_M0805-Relais-Modul_a-eagle-import-m10-do-01-1-rescue-M10DO01-01-rescue R23
U 1 1 CE556BDD
P 5200 8125
F 0 "R23" H 5050 8184 59  0000 L BNN
F 1 "DNP" H 5050 7995 59  0000 L BNN
F 2 "Resistor_SMD:R_0805_2012Metric_Pad1.15x1.40mm_HandSolder" H 5200 8125 50  0001 C CNN
F 3 "" H 5200 8125 50  0001 C CNN
	1    5200 8125
	1    0    0    -1  
$EndComp
$Comp
L M10DO01-01-rescue:R-EU_M0805-Relais-Modul_a-eagle-import-m10-do-01-1-rescue-M10DO01-01-rescue R24
U 1 1 AE0241E3
P 4400 8125
F 0 "R24" H 4250 8184 59  0000 L BNN
F 1 "10k" H 4250 7995 59  0000 L BNN
F 2 "Resistor_SMD:R_0805_2012Metric_Pad1.15x1.40mm_HandSolder" H 4400 8125 50  0001 C CNN
F 3 "" H 4400 8125 50  0001 C CNN
	1    4400 8125
	1    0    0    -1  
$EndComp
$Comp
L M10DO01-01-rescue:M02PTH-Relais-Modul_a-eagle-import-m10-do-01-1-rescue-M10DO01-01-rescue JP2
U 1 1 FA93C76E
P 4350 8625
F 0 "JP2" H 4250 8855 59  0000 L BNN
F 1 "M02PTH" H 4250 8425 59  0000 L BNN
F 2 "M10DO01-01:1X02" H 4350 8625 50  0001 C CNN
F 3 "" H 4350 8625 50  0001 C CNN
	1    4350 8625
	1    0    0    -1  
$EndComp
$Comp
L M10DO01-01-rescue:R-EU_M0805-Relais-Modul_a-eagle-import-m10-do-01-1-rescue-M10DO01-01-rescue R33
U 1 1 0FD5C01C
P 4950 2375
F 0 "R33" H 4650 2384 59  0000 L BNN
F 1 "2k" H 5100 2395 59  0000 L BNN
F 2 "Resistor_SMD:R_0805_2012Metric_Pad1.15x1.40mm_HandSolder" H 4950 2375 50  0001 C CNN
F 3 "" H 4950 2375 50  0001 C CNN
	1    4950 2375
	1    0    0    -1  
$EndComp
$Comp
L M10DO01-01-rescue:R-EU_M0805-Relais-Modul_a-eagle-import-m10-do-01-1-rescue-M10DO01-01-rescue R34
U 1 1 D2326A9E
P 4950 2475
F 0 "R34" H 4650 2484 59  0000 L BNN
F 1 "2k" H 5100 2495 59  0000 L BNN
F 2 "Resistor_SMD:R_0805_2012Metric_Pad1.15x1.40mm_HandSolder" H 4950 2475 50  0001 C CNN
F 3 "" H 4950 2475 50  0001 C CNN
	1    4950 2475
	1    0    0    -1  
$EndComp
$Comp
L M10DO01-01-rescue:R-EU_M0805-Relais-Modul_a-eagle-import-m10-do-01-1-rescue-M10DO01-01-rescue R35
U 1 1 4A68D9B5
P 4950 2575
F 0 "R35" H 4650 2584 59  0000 L BNN
F 1 "2k" H 5100 2595 59  0000 L BNN
F 2 "Resistor_SMD:R_0805_2012Metric_Pad1.15x1.40mm_HandSolder" H 4950 2575 50  0001 C CNN
F 3 "" H 4950 2575 50  0001 C CNN
	1    4950 2575
	1    0    0    -1  
$EndComp
$Comp
L M10DO01-01-rescue:R-EU_M0805-Relais-Modul_a-eagle-import-m10-do-01-1-rescue-M10DO01-01-rescue R36
U 1 1 D4E27231
P 4950 2675
F 0 "R36" H 4650 2684 59  0000 L BNN
F 1 "2k" H 5100 2695 59  0000 L BNN
F 2 "Resistor_SMD:R_0805_2012Metric_Pad1.15x1.40mm_HandSolder" H 4950 2675 50  0001 C CNN
F 3 "" H 4950 2675 50  0001 C CNN
	1    4950 2675
	1    0    0    -1  
$EndComp
$Comp
L M10DO01-01-rescue:R-EU_M0805-Relais-Modul_a-eagle-import-m10-do-01-1-rescue-M10DO01-01-rescue R37
U 1 1 E324492F
P 4950 2775
F 0 "R37" H 4650 2784 59  0000 L BNN
F 1 "2k" H 5100 2795 59  0000 L BNN
F 2 "Resistor_SMD:R_0805_2012Metric_Pad1.15x1.40mm_HandSolder" H 4950 2775 50  0001 C CNN
F 3 "" H 4950 2775 50  0001 C CNN
	1    4950 2775
	1    0    0    -1  
$EndComp
$Comp
L M10DO01-01-rescue:R-EU_M0805-Relais-Modul_a-eagle-import-m10-do-01-1-rescue-M10DO01-01-rescue R38
U 1 1 C6936F28
P 4950 2875
F 0 "R38" H 4650 2884 59  0000 L BNN
F 1 "2k" H 5100 2895 59  0000 L BNN
F 2 "Resistor_SMD:R_0805_2012Metric_Pad1.15x1.40mm_HandSolder" H 4950 2875 50  0001 C CNN
F 3 "" H 4950 2875 50  0001 C CNN
	1    4950 2875
	1    0    0    -1  
$EndComp
$Comp
L M10DO01-01-rescue:R-EU_M0805-Relais-Modul_a-eagle-import-m10-do-01-1-rescue-M10DO01-01-rescue R39
U 1 1 A2552392
P 4950 2975
F 0 "R39" H 4650 2984 59  0000 L BNN
F 1 "2k" H 5100 2995 59  0000 L BNN
F 2 "Resistor_SMD:R_0805_2012Metric_Pad1.15x1.40mm_HandSolder" H 4950 2975 50  0001 C CNN
F 3 "" H 4950 2975 50  0001 C CNN
	1    4950 2975
	1    0    0    -1  
$EndComp
$Comp
L M10DO01-01-rescue:R-EU_M0805-Relais-Modul_a-eagle-import-m10-do-01-1-rescue-M10DO01-01-rescue R40
U 1 1 E48C0AEE
P 4950 3075
F 0 "R40" H 4650 3084 59  0000 L BNN
F 1 "2k" H 5100 3095 59  0000 L BNN
F 2 "Resistor_SMD:R_0805_2012Metric_Pad1.15x1.40mm_HandSolder" H 4950 3075 50  0001 C CNN
F 3 "" H 4950 3075 50  0001 C CNN
	1    4950 3075
	1    0    0    -1  
$EndComp
$Comp
L M10DO01-01-rescue:WIREPADSMD1,27-254-Relais-Modul_a-eagle-import-m10-do-01-1-rescue-M10DO01-01-rescue O1
U 1 1 93ACE07A
P 5400 2375
F 0 "O1" H 5105 2348 59  0000 L BNN
F 1 "WIREPADSMD1,27-254" H 4005 2345 59  0000 L BNN
F 2 "M10DO01-01:SMD1,27-2,54" H 5400 2375 50  0001 C CNN
F 3 "" H 5400 2375 50  0001 C CNN
	1    5400 2375
	-1   0    0    1   
$EndComp
$Comp
L M10DO01-01-rescue:WIREPADSMD1,27-254-Relais-Modul_a-eagle-import-m10-do-01-1-rescue-M10DO01-01-rescue O2
U 1 1 BC8CBAD2
P 5400 2475
F 0 "O2" H 5105 2448 59  0000 L BNN
F 1 "WIREPADSMD1,27-254" H 4005 2445 59  0000 L BNN
F 2 "M10DO01-01:SMD1,27-2,54" H 5400 2475 50  0001 C CNN
F 3 "" H 5400 2475 50  0001 C CNN
	1    5400 2475
	-1   0    0    1   
$EndComp
$Comp
L M10DO01-01-rescue:WIREPADSMD1,27-254-Relais-Modul_a-eagle-import-m10-do-01-1-rescue-M10DO01-01-rescue O3
U 1 1 D94F8C87
P 5400 2575
F 0 "O3" H 5105 2548 59  0000 L BNN
F 1 "WIREPADSMD1,27-254" H 4005 2545 59  0000 L BNN
F 2 "M10DO01-01:SMD1,27-2,54" H 5400 2575 50  0001 C CNN
F 3 "" H 5400 2575 50  0001 C CNN
	1    5400 2575
	-1   0    0    1   
$EndComp
$Comp
L M10DO01-01-rescue:WIREPADSMD1,27-254-Relais-Modul_a-eagle-import-m10-do-01-1-rescue-M10DO01-01-rescue O4
U 1 1 199B803D
P 5400 2675
F 0 "O4" H 5105 2648 59  0000 L BNN
F 1 "WIREPADSMD1,27-254" H 4005 2645 59  0000 L BNN
F 2 "M10DO01-01:SMD1,27-2,54" H 5400 2675 50  0001 C CNN
F 3 "" H 5400 2675 50  0001 C CNN
	1    5400 2675
	-1   0    0    1   
$EndComp
$Comp
L M10DO01-01-rescue:WIREPADSMD1,27-254-Relais-Modul_a-eagle-import-m10-do-01-1-rescue-M10DO01-01-rescue O5
U 1 1 F9297B56
P 5400 2775
F 0 "O5" H 5105 2748 59  0000 L BNN
F 1 "WIREPADSMD1,27-254" H 4005 2745 59  0000 L BNN
F 2 "M10DO01-01:SMD1,27-2,54" H 5400 2775 50  0001 C CNN
F 3 "" H 5400 2775 50  0001 C CNN
	1    5400 2775
	-1   0    0    1   
$EndComp
$Comp
L M10DO01-01-rescue:WIREPADSMD1,27-254-Relais-Modul_a-eagle-import-m10-do-01-1-rescue-M10DO01-01-rescue O6
U 1 1 9513BDE4
P 5400 2875
F 0 "O6" H 5105 2848 59  0000 L BNN
F 1 "WIREPADSMD1,27-254" H 4005 2845 59  0000 L BNN
F 2 "M10DO01-01:SMD1,27-2,54" H 5400 2875 50  0001 C CNN
F 3 "" H 5400 2875 50  0001 C CNN
	1    5400 2875
	-1   0    0    1   
$EndComp
$Comp
L M10DO01-01-rescue:WIREPADSMD1,27-254-Relais-Modul_a-eagle-import-m10-do-01-1-rescue-M10DO01-01-rescue O7
U 1 1 9FC1BFFB
P 5400 2975
F 0 "O7" H 5105 2948 59  0000 L BNN
F 1 "WIREPADSMD1,27-254" H 4005 2945 59  0000 L BNN
F 2 "M10DO01-01:SMD1,27-2,54" H 5400 2975 50  0001 C CNN
F 3 "" H 5400 2975 50  0001 C CNN
	1    5400 2975
	-1   0    0    1   
$EndComp
$Comp
L M10DO01-01-rescue:WIREPADSMD1,27-254-Relais-Modul_a-eagle-import-m10-do-01-1-rescue-M10DO01-01-rescue O8
U 1 1 AC807CF6
P 5400 3075
F 0 "O8" H 5105 3048 59  0000 L BNN
F 1 "WIREPADSMD1,27-254" H 4005 3045 59  0000 L BNN
F 2 "M10DO01-01:SMD1,27-2,54" H 5400 3075 50  0001 C CNN
F 3 "" H 5400 3075 50  0001 C CNN
	1    5400 3075
	-1   0    0    1   
$EndComp
$Comp
L M10DO01-01-rescue:WIREPADSMD1,27-254-Relais-Modul_a-eagle-import-m10-do-01-1-rescue-M10DO01-01-rescue O_GND1
U 1 1 9C8BB896
P 5400 3275
F 0 "O_GND1" H 5005 3248 59  0000 L BNN
F 1 "WIREPADSMD1,27-254" H 3905 3245 59  0000 L BNN
F 2 "M10DO01-01:SMD1,27-2,54" H 5400 3275 50  0001 C CNN
F 3 "" H 5400 3275 50  0001 C CNN
	1    5400 3275
	-1   0    0    1   
$EndComp
$Comp
L M10DO01-01-rescue:WIREPADSMD1,27-254-Relais-Modul_a-eagle-import-m10-do-01-1-rescue-M10DO01-01-rescue O_5V1
U 1 1 B5F7826A
P 5400 3425
F 0 "O_5V1" H 5005 3398 59  0000 L BNN
F 1 "WIREPADSMD1,27-254" H 3905 3395 59  0000 L BNN
F 2 "M10DO01-01:SMD1,27-2,54" H 5400 3425 50  0001 C CNN
F 3 "" H 5400 3425 50  0001 C CNN
	1    5400 3425
	-1   0    0    1   
$EndComp
$Comp
L M10DO01-01-rescue:JUMPER-2'S'-Relais-Modul_a-eagle-import-m10-do-01-1-rescue-M10DO01-01-rescue JP1
U 1 1 2F430EF2
P 11800 8875
F 0 "JP1" V 11750 8875 59  0000 L BNN
F 1 "JUMPER-2'S'" V 12025 8875 59  0000 L BNN
F 2 "Connector_PinHeader_2.54mm:PinHeader_1x02_P2.54mm_Vertical" H 11800 8875 50  0001 C CNN
F 3 "" H 11800 8875 50  0001 C CNN
	1    11800 8875
	1    0    0    1   
$EndComp
$Comp
L M10DO01-01-rescue:TE5-Relais-Modul_a-eagle-import-m10-do-01-1-rescue-M10DO01-01-rescue F1
U 1 1 DE3E464D
P 11100 7375
F 0 "F1" H 10950 7430 59  0000 L BNN
F 1 "2A" H 10950 7260 59  0000 L BNN
F 2 "M10DO01-01:TE5" H 11100 7375 50  0001 C CNN
F 3 "" H 11100 7375 50  0001 C CNN
	1    11100 7375
	1    0    0    -1  
$EndComp
$Comp
L M10DO01-01-rescue:SCHOTTKY-DIODESMC-Relais-Modul_a-eagle-import-m10-do-01-1-rescue-M10DO01-01-rescue D10
U 1 1 7C864EEE
P 11600 7375
F 0 "D10" H 11510 7450 59  0000 L BNN
F 1 "MBR540T3G" H 11510 7240 59  0000 L BNN
F 2 "M10DO01-01:SMC" H 11600 7375 50  0001 C CNN
F 3 "" H 11600 7375 50  0001 C CNN
	1    11600 7375
	-1   0    0    1   
$EndComp
$Comp
L M10DO01-01-rescue:L4_R-Relais-Modul_a-eagle-import-m10-do-01-1-rescue-M10DO01-01-rescue POWER1
U 1 1 6E33AD2A
P 13100 7575
F 0 "POWER1" H 12835 7605 59  0000 R TNN
F 1 "L4_R" H 12800 7425 59  0000 L BNN
F 2 "M10DO01-01:L4_R" H 13100 7575 50  0001 C CNN
F 3 "" H 13100 7575 50  0001 C CNN
	1    13100 7575
	1    0    0    -1  
$EndComp
$Comp
L M10DO01-01-rescue:L4_R-Relais-Modul_a-eagle-import-m10-do-01-1-rescue-M10DO01-01-rescue POWER1
U 2 1 6E33AD26
P 13100 7875
F 0 "POWER1" H 12835 7905 59  0000 R TNN
F 1 "L4_R" H 12800 7725 59  0000 L BNN
F 2 "M10DO01-01:L4_R" H 13100 7875 50  0001 C CNN
F 3 "" H 13100 7875 50  0001 C CNN
	2    13100 7875
	1    0    0    -1  
$EndComp
$Comp
L M10DO01-01-rescue:L4_R-Relais-Modul_a-eagle-import-m10-do-01-1-rescue-M10DO01-01-rescue POWER1
U 3 1 6E33AD22
P 13100 8175
F 0 "POWER1" H 12835 8205 59  0000 R TNN
F 1 "L4_R" H 12800 8025 59  0000 L BNN
F 2 "M10DO01-01:L4_R" H 13100 8175 50  0001 C CNN
F 3 "" H 13100 8175 50  0001 C CNN
	3    13100 8175
	1    0    0    -1  
$EndComp
$Comp
L M10DO01-01-rescue:L4_R-Relais-Modul_a-eagle-import-m10-do-01-1-rescue-M10DO01-01-rescue POWER1
U 4 1 6E33AD3E
P 13100 8475
F 0 "POWER1" H 12835 8505 59  0000 R TNN
F 1 "L4_R" H 12800 8325 59  0000 L BNN
F 2 "M10DO01-01:L4_R" H 13100 8475 50  0001 C CNN
F 3 "" H 13100 8475 50  0001 C CNN
	4    13100 8475
	1    0    0    -1  
$EndComp
$Comp
L M10DO01-01-rescue:L4_L-Relais-Modul_a-eagle-import-m10-do-01-1-rescue-M10DO01-01-rescue POWER2
U 1 1 0356F00C
P 14900 7575
F 0 "POWER2" H 14635 7605 59  0000 R TNN
F 1 "L4_L" H 14600 7425 59  0000 L BNN
F 2 "M10DO01-01:L4_L" H 14900 7575 50  0001 C CNN
F 3 "" H 14900 7575 50  0001 C CNN
	1    14900 7575
	1    0    0    -1  
$EndComp
$Comp
L M10DO01-01-rescue:L4_L-Relais-Modul_a-eagle-import-m10-do-01-1-rescue-M10DO01-01-rescue POWER2
U 2 1 0356F000
P 14900 7875
F 0 "POWER2" H 14635 7905 59  0000 R TNN
F 1 "L4_L" H 14600 7725 59  0000 L BNN
F 2 "M10DO01-01:L4_L" H 14900 7875 50  0001 C CNN
F 3 "" H 14900 7875 50  0001 C CNN
	2    14900 7875
	1    0    0    -1  
$EndComp
$Comp
L M10DO01-01-rescue:L4_L-Relais-Modul_a-eagle-import-m10-do-01-1-rescue-M10DO01-01-rescue POWER2
U 3 1 0356F004
P 14900 8175
F 0 "POWER2" H 14635 8205 59  0000 R TNN
F 1 "L4_L" H 14600 8025 59  0000 L BNN
F 2 "M10DO01-01:L4_L" H 14900 8175 50  0001 C CNN
F 3 "" H 14900 8175 50  0001 C CNN
	3    14900 8175
	1    0    0    -1  
$EndComp
$Comp
L M10DO01-01-rescue:L4_L-Relais-Modul_a-eagle-import-m10-do-01-1-rescue-M10DO01-01-rescue POWER2
U 4 1 0356F018
P 14900 8475
F 0 "POWER2" H 14635 8505 59  0000 R TNN
F 1 "L4_L" H 14600 8325 59  0000 L BNN
F 2 "M10DO01-01:L4_L" H 14900 8475 50  0001 C CNN
F 3 "" H 14900 8475 50  0001 C CNN
	4    14900 8475
	1    0    0    -1  
$EndComp
$Comp
L M10DO01-01-rescue:HF7520-Relais-Modul_a-eagle-import-m10-do-01-1-rescue-M10DO01-01-rescue REL1
U 1 1 B7F9987D
P 10350 2025
F 0 "REL1" H 10350 2025 50  0001 C CNN
F 1 "HF7520" H 10400 2140 59  0001 L BNN
F 2 "M10DO01-01:HF7520" H 10350 2025 50  0001 C CNN
F 3 "" H 10350 2025 50  0001 C CNN
	1    10350 2025
	1    0    0    -1  
$EndComp
$Comp
L M10DO01-01-rescue:HF7520-Relais-Modul_a-eagle-import-m10-do-01-1-rescue-M10DO01-01-rescue REL1
U 2 1 B7F99871
P 10950 2025
F 0 "REL1" H 10950 2025 50  0001 C CNN
F 1 "HF7520" H 11000 2140 59  0001 L BNN
F 2 "M10DO01-01:HF7520" H 10950 2025 50  0001 C CNN
F 3 "" H 10950 2025 50  0001 C CNN
	2    10950 2025
	1    0    0    -1  
$EndComp
$Comp
L M10DO01-01-rescue:HF7520-Relais-Modul_a-eagle-import-m10-do-01-1-rescue-M10DO01-01-rescue REL2
U 1 1 F9005D4A
P 10350 2625
F 0 "REL2" H 10350 2625 50  0001 C CNN
F 1 "HF7520" H 10400 2740 59  0001 L BNN
F 2 "M10DO01-01:HF7520" H 10350 2625 50  0001 C CNN
F 3 "" H 10350 2625 50  0001 C CNN
	1    10350 2625
	1    0    0    -1  
$EndComp
$Comp
L M10DO01-01-rescue:HF7520-Relais-Modul_a-eagle-import-m10-do-01-1-rescue-M10DO01-01-rescue REL2
U 2 1 F9005D46
P 10950 2625
F 0 "REL2" H 10950 2625 50  0001 C CNN
F 1 "HF7520" H 11000 2740 59  0001 L BNN
F 2 "M10DO01-01:HF7520" H 10950 2625 50  0001 C CNN
F 3 "" H 10950 2625 50  0001 C CNN
	2    10950 2625
	1    0    0    -1  
$EndComp
$Comp
L M10DO01-01-rescue:HF7520-Relais-Modul_a-eagle-import-m10-do-01-1-rescue-M10DO01-01-rescue REL3
U 1 1 CF4D38FB
P 10350 3225
F 0 "REL3" H 10350 3225 50  0001 C CNN
F 1 "HF7520" H 10400 3340 59  0001 L BNN
F 2 "M10DO01-01:HF7520" H 10350 3225 50  0001 C CNN
F 3 "" H 10350 3225 50  0001 C CNN
	1    10350 3225
	1    0    0    -1  
$EndComp
$Comp
L M10DO01-01-rescue:HF7520-Relais-Modul_a-eagle-import-m10-do-01-1-rescue-M10DO01-01-rescue REL3
U 2 1 CF4D38F7
P 10950 3225
F 0 "REL3" H 10950 3225 50  0001 C CNN
F 1 "HF7520" H 11000 3340 59  0001 L BNN
F 2 "M10DO01-01:HF7520" H 10950 3225 50  0001 C CNN
F 3 "" H 10950 3225 50  0001 C CNN
	2    10950 3225
	1    0    0    -1  
$EndComp
$Comp
L M10DO01-01-rescue:HF7520-Relais-Modul_a-eagle-import-m10-do-01-1-rescue-M10DO01-01-rescue REL4
U 1 1 2C750D5C
P 10350 3825
F 0 "REL4" H 10350 3825 50  0001 C CNN
F 1 "HF7520" H 10400 3940 59  0001 L BNN
F 2 "M10DO01-01:HF7520" H 10350 3825 50  0001 C CNN
F 3 "" H 10350 3825 50  0001 C CNN
	1    10350 3825
	1    0    0    -1  
$EndComp
$Comp
L M10DO01-01-rescue:HF7520-Relais-Modul_a-eagle-import-m10-do-01-1-rescue-M10DO01-01-rescue REL4
U 2 1 2C750D50
P 10950 3825
F 0 "REL4" H 10950 3825 50  0001 C CNN
F 1 "HF7520" H 11000 3940 59  0001 L BNN
F 2 "M10DO01-01:HF7520" H 10950 3825 50  0001 C CNN
F 3 "" H 10950 3825 50  0001 C CNN
	2    10950 3825
	1    0    0    -1  
$EndComp
$Comp
L M10DO01-01-rescue:HF7520-Relais-Modul_a-eagle-import-m10-do-01-1-rescue-M10DO01-01-rescue REL5
U 1 1 762736D4
P 10350 4425
F 0 "REL5" H 10350 4425 50  0001 C CNN
F 1 "HF7520" H 10400 4540 59  0001 L BNN
F 2 "M10DO01-01:HF7520" H 10350 4425 50  0001 C CNN
F 3 "" H 10350 4425 50  0001 C CNN
	1    10350 4425
	1    0    0    -1  
$EndComp
$Comp
L M10DO01-01-rescue:HF7520-Relais-Modul_a-eagle-import-m10-do-01-1-rescue-M10DO01-01-rescue REL5
U 2 1 762736D8
P 10950 4475
F 0 "REL5" H 10950 4475 50  0001 C CNN
F 1 "HF7520" H 11000 4590 59  0001 L BNN
F 2 "M10DO01-01:HF7520" H 10950 4475 50  0001 C CNN
F 3 "" H 10950 4475 50  0001 C CNN
	2    10950 4475
	1    0    0    -1  
$EndComp
$Comp
L M10DO01-01-rescue:HF7520-Relais-Modul_a-eagle-import-m10-do-01-1-rescue-M10DO01-01-rescue REL6
U 1 1 C908CB67
P 10350 5025
F 0 "REL6" H 10350 5025 50  0001 C CNN
F 1 "HF7520" H 10400 5140 59  0001 L BNN
F 2 "M10DO01-01:HF7520" H 10350 5025 50  0001 C CNN
F 3 "" H 10350 5025 50  0001 C CNN
	1    10350 5025
	1    0    0    -1  
$EndComp
$Comp
L M10DO01-01-rescue:HF7520-Relais-Modul_a-eagle-import-m10-do-01-1-rescue-M10DO01-01-rescue REL6
U 2 1 C908CB6B
P 10950 5025
F 0 "REL6" H 10950 5025 50  0001 C CNN
F 1 "HF7520" H 11000 5140 59  0001 L BNN
F 2 "M10DO01-01:HF7520" H 10950 5025 50  0001 C CNN
F 3 "" H 10950 5025 50  0001 C CNN
	2    10950 5025
	1    0    0    -1  
$EndComp
$Comp
L M10DO01-01-rescue:HF7520-Relais-Modul_a-eagle-import-m10-do-01-1-rescue-M10DO01-01-rescue REL7
U 1 1 906199B9
P 10350 5625
F 0 "REL7" H 10350 5625 50  0001 C CNN
F 1 "HF7520" H 10400 5740 59  0001 L BNN
F 2 "M10DO01-01:HF7520" H 10350 5625 50  0001 C CNN
F 3 "" H 10350 5625 50  0001 C CNN
	1    10350 5625
	1    0    0    -1  
$EndComp
$Comp
L M10DO01-01-rescue:HF7520-Relais-Modul_a-eagle-import-m10-do-01-1-rescue-M10DO01-01-rescue REL7
U 2 1 906199B5
P 10950 5625
F 0 "REL7" H 10950 5625 50  0001 C CNN
F 1 "HF7520" H 11000 5740 59  0001 L BNN
F 2 "M10DO01-01:HF7520" H 10950 5625 50  0001 C CNN
F 3 "" H 10950 5625 50  0001 C CNN
	2    10950 5625
	1    0    0    -1  
$EndComp
$Comp
L M10DO01-01-rescue:HF7520-Relais-Modul_a-eagle-import-m10-do-01-1-rescue-M10DO01-01-rescue REL8
U 1 1 F4F812E0
P 10350 6225
F 0 "REL8" H 10350 6225 50  0001 C CNN
F 1 "HF7520" H 10400 6340 59  0001 L BNN
F 2 "M10DO01-01:HF7520" H 10350 6225 50  0001 C CNN
F 3 "" H 10350 6225 50  0001 C CNN
	1    10350 6225
	1    0    0    -1  
$EndComp
$Comp
L M10DO01-01-rescue:HF7520-Relais-Modul_a-eagle-import-m10-do-01-1-rescue-M10DO01-01-rescue REL8
U 2 1 F4F812EC
P 10950 6225
F 0 "REL8" H 10950 6225 50  0001 C CNN
F 1 "HF7520" H 11000 6340 59  0001 L BNN
F 2 "M10DO01-01:HF7520" H 10950 6225 50  0001 C CNN
F 3 "" H 10950 6225 50  0001 C CNN
	2    10950 6225
	1    0    0    -1  
$EndComp
$Comp
L M10DO01-01-rescue:GND-Relais-Modul_a-eagle-import-m10-do-01-1-rescue-M10DO01-01-rescue #GND041
U 1 1 D9BFE6C2
P 7250 3475
F 0 "#GND041" H 7250 3475 50  0001 C CNN
F 1 "GND" H 7150 3375 59  0000 L BNN
F 2 "" H 7250 3475 50  0001 C CNN
F 3 "" H 7250 3475 50  0001 C CNN
	1    7250 3475
	1    0    0    -1  
$EndComp
$Comp
L M10DO01-01-rescue:ULN2803A'SO18W-Relais-Modul_a-eagle-import-m10-do-01-1-rescue-M10DO01-01-rescue IC3
U 1 1 27E24E97
P 8250 2775
F 0 "IC3" H 7950 3305 59  0000 L BNN
F 1 "ULN2803" H 7950 2175 59  0000 L BNN
F 2 "M10DO01-01:SO18W" H 8250 2775 50  0001 C CNN
F 3 "" H 8250 2775 50  0001 C CNN
	1    8250 2775
	1    0    0    -1  
$EndComp
$Comp
L M10DO01-01-rescue:MSTBA-08'508'-Relais-Modul_a-eagle-import-m10-do-01-1-rescue-M10DO01-01-rescue J1
U 1 1 2CE6A523
P 11350 4025
F 0 "J1" H 11055 4060 59  0000 R TNN
F 1 "MSTBA-08'508'" H 11050 3875 59  0000 L BNN
F 2 "M10DO01-01:MSTBA-08-508" H 11350 4025 50  0001 C CNN
F 3 "" H 11350 4025 50  0001 C CNN
	1    11350 4025
	-1   0    0    -1  
$EndComp
$Comp
L M10DO01-01-rescue:MSTBA-08'508'-Relais-Modul_a-eagle-import-m10-do-01-1-rescue-M10DO01-01-rescue J1
U 2 1 2CE6A52F
P 11350 3625
F 0 "J1" H 11055 3660 59  0000 R TNN
F 1 "MSTBA-08'508'" H 11050 3475 59  0000 L BNN
F 2 "M10DO01-01:MSTBA-08-508" H 11350 3625 50  0001 C CNN
F 3 "" H 11350 3625 50  0001 C CNN
	2    11350 3625
	-1   0    0    -1  
$EndComp
$Comp
L M10DO01-01-rescue:MSTBA-08'508'-Relais-Modul_a-eagle-import-m10-do-01-1-rescue-M10DO01-01-rescue J1
U 3 1 2CE6A52B
P 11350 3025
F 0 "J1" H 11055 3060 59  0000 R TNN
F 1 "MSTBA-08'508'" H 11050 2875 59  0000 L BNN
F 2 "M10DO01-01:MSTBA-08-508" H 11350 3025 50  0001 C CNN
F 3 "" H 11350 3025 50  0001 C CNN
	3    11350 3025
	-1   0    0    -1  
$EndComp
$Comp
L M10DO01-01-rescue:MSTBA-08'508'-Relais-Modul_a-eagle-import-m10-do-01-1-rescue-M10DO01-01-rescue J1
U 4 1 2CE6A537
P 11350 3425
F 0 "J1" H 11055 3460 59  0000 R TNN
F 1 "MSTBA-08'508'" H 11050 3275 59  0000 L BNN
F 2 "M10DO01-01:MSTBA-08-508" H 11350 3425 50  0001 C CNN
F 3 "" H 11350 3425 50  0001 C CNN
	4    11350 3425
	-1   0    0    -1  
$EndComp
$Comp
L M10DO01-01-rescue:MSTBA-08'508'-Relais-Modul_a-eagle-import-m10-do-01-1-rescue-M10DO01-01-rescue J1
U 5 1 2CE6A533
P 11350 2825
F 0 "J1" H 11055 2860 59  0000 R TNN
F 1 "MSTBA-08'508'" H 11050 2675 59  0000 L BNN
F 2 "M10DO01-01:MSTBA-08-508" H 11350 2825 50  0001 C CNN
F 3 "" H 11350 2825 50  0001 C CNN
	5    11350 2825
	-1   0    0    -1  
$EndComp
$Comp
L M10DO01-01-rescue:MSTBA-08'508'-Relais-Modul_a-eagle-import-m10-do-01-1-rescue-M10DO01-01-rescue J1
U 6 1 2CE6A53F
P 11350 2425
F 0 "J1" H 11055 2460 59  0000 R TNN
F 1 "MSTBA-08'508'" H 11050 2275 59  0000 L BNN
F 2 "M10DO01-01:MSTBA-08-508" H 11350 2425 50  0001 C CNN
F 3 "" H 11350 2425 50  0001 C CNN
	6    11350 2425
	-1   0    0    -1  
$EndComp
$Comp
L M10DO01-01-rescue:MSTBA-08'508'-Relais-Modul_a-eagle-import-m10-do-01-1-rescue-M10DO01-01-rescue J1
U 7 1 2CE6A53B
P 11350 1825
F 0 "J1" H 11055 1860 59  0000 R TNN
F 1 "MSTBA-08'508'" H 11050 1675 59  0000 L BNN
F 2 "M10DO01-01:MSTBA-08-508" H 11350 1825 50  0001 C CNN
F 3 "" H 11350 1825 50  0001 C CNN
	7    11350 1825
	-1   0    0    -1  
$EndComp
$Comp
L M10DO01-01-rescue:MSTBA-08'508'-Relais-Modul_a-eagle-import-m10-do-01-1-rescue-M10DO01-01-rescue J1
U 8 1 2CE6A507
P 11350 2225
F 0 "J1" H 11055 2260 59  0000 R TNN
F 1 "MSTBA-08'508'" H 11050 2075 59  0000 L BNN
F 2 "M10DO01-01:MSTBA-08-508" H 11350 2225 50  0001 C CNN
F 3 "" H 11350 2225 50  0001 C CNN
	8    11350 2225
	-1   0    0    -1  
$EndComp
$Comp
L M10DO01-01-rescue:MSTBA-08'508'-Relais-Modul_a-eagle-import-m10-do-01-1-rescue-M10DO01-01-rescue J2
U 1 1 F2D55355
P 11350 4675
F 0 "J2" H 11055 4710 59  0000 R TNN
F 1 "MSTBA-08'508'" H 11050 4525 59  0000 L BNN
F 2 "M10DO01-01:MSTBA-08-508" H 11350 4675 50  0001 C CNN
F 3 "" H 11350 4675 50  0001 C CNN
	1    11350 4675
	-1   0    0    -1  
$EndComp
$Comp
L M10DO01-01-rescue:MSTBA-08'508'-Relais-Modul_a-eagle-import-m10-do-01-1-rescue-M10DO01-01-rescue J2
U 2 1 F2D55359
P 11350 4275
F 0 "J2" H 11055 4310 59  0000 R TNN
F 1 "MSTBA-08'508'" H 11050 4125 59  0000 L BNN
F 2 "M10DO01-01:MSTBA-08-508" H 11350 4275 50  0001 C CNN
F 3 "" H 11350 4275 50  0001 C CNN
	2    11350 4275
	-1   0    0    -1  
$EndComp
$Comp
L M10DO01-01-rescue:MSTBA-08'508'-Relais-Modul_a-eagle-import-m10-do-01-1-rescue-M10DO01-01-rescue J2
U 3 1 F2D5535D
P 11350 4825
F 0 "J2" H 11055 4860 59  0000 R TNN
F 1 "MSTBA-08'508'" H 11050 4675 59  0000 L BNN
F 2 "M10DO01-01:MSTBA-08-508" H 11350 4825 50  0001 C CNN
F 3 "" H 11350 4825 50  0001 C CNN
	3    11350 4825
	-1   0    0    -1  
$EndComp
$Comp
L M10DO01-01-rescue:MSTBA-08'508'-Relais-Modul_a-eagle-import-m10-do-01-1-rescue-M10DO01-01-rescue J2
U 4 1 F2D55341
P 11350 5225
F 0 "J2" H 11055 5260 59  0000 R TNN
F 1 "MSTBA-08'508'" H 11050 5075 59  0000 L BNN
F 2 "M10DO01-01:MSTBA-08-508" H 11350 5225 50  0001 C CNN
F 3 "" H 11350 5225 50  0001 C CNN
	4    11350 5225
	-1   0    0    -1  
$EndComp
$Comp
L M10DO01-01-rescue:MSTBA-08'508'-Relais-Modul_a-eagle-import-m10-do-01-1-rescue-M10DO01-01-rescue J2
U 5 1 F2D55345
P 11350 5425
F 0 "J2" H 11055 5460 59  0000 R TNN
F 1 "MSTBA-08'508'" H 11050 5275 59  0000 L BNN
F 2 "M10DO01-01:MSTBA-08-508" H 11350 5425 50  0001 C CNN
F 3 "" H 11350 5425 50  0001 C CNN
	5    11350 5425
	-1   0    0    -1  
$EndComp
$Comp
L M10DO01-01-rescue:MSTBA-08'508'-Relais-Modul_a-eagle-import-m10-do-01-1-rescue-M10DO01-01-rescue J2
U 6 1 F2D55349
P 11350 5825
F 0 "J2" H 11055 5860 59  0000 R TNN
F 1 "MSTBA-08'508'" H 11050 5675 59  0000 L BNN
F 2 "M10DO01-01:MSTBA-08-508" H 11350 5825 50  0001 C CNN
F 3 "" H 11350 5825 50  0001 C CNN
	6    11350 5825
	-1   0    0    -1  
$EndComp
$Comp
L M10DO01-01-rescue:MSTBA-08'508'-Relais-Modul_a-eagle-import-m10-do-01-1-rescue-M10DO01-01-rescue J2
U 7 1 F2D5534D
P 11350 6025
F 0 "J2" H 11055 6060 59  0000 R TNN
F 1 "MSTBA-08'508'" H 11050 5875 59  0000 L BNN
F 2 "M10DO01-01:MSTBA-08-508" H 11350 6025 50  0001 C CNN
F 3 "" H 11350 6025 50  0001 C CNN
	7    11350 6025
	-1   0    0    -1  
$EndComp
$Comp
L M10DO01-01-rescue:MSTBA-08'508'-Relais-Modul_a-eagle-import-m10-do-01-1-rescue-M10DO01-01-rescue J2
U 8 1 F2D55371
P 11350 6425
F 0 "J2" H 11055 6460 59  0000 R TNN
F 1 "MSTBA-08'508'" H 11050 6275 59  0000 L BNN
F 2 "M10DO01-01:MSTBA-08-508" H 11350 6425 50  0001 C CNN
F 3 "" H 11350 6425 50  0001 C CNN
	8    11350 6425
	-1   0    0    -1  
$EndComp
Text Notes 5200 2125 0    59   ~ 0
LED's gemeinsamer PIN GND
Connection ~ 3350 7375
NoConn ~ 2400 6925
NoConn ~ 1800 6825
NoConn ~ 1800 6625
NoConn ~ 1800 6725
NoConn ~ 2400 6725
NoConn ~ 2400 6525
NoConn ~ 1800 6525
NoConn ~ 1800 6425
NoConn ~ 2400 6225
NoConn ~ 2400 6125
NoConn ~ 2400 6025
NoConn ~ 1800 6125
NoConn ~ 1800 6025
NoConn ~ 1800 5925
NoConn ~ 1800 5825
NoConn ~ 1800 5725
NoConn ~ 2400 5825
NoConn ~ 2400 5725
NoConn ~ 2400 5525
NoConn ~ 2400 5425
NoConn ~ 2400 5325
NoConn ~ 1800 5525
NoConn ~ 1800 5325
$Comp
L M10DO01-01-rescue:M20X2-Relais-Modul_a-eagle-import-m10-do-01-1-rescue-M10DO01-01-rescue CON_1
U 1 1 0001D5F7
P 2100 6025
F 0 "CON_1" H 2000 7175 59  0000 L BNN
F 1 "M20X2" H 2000 4925 59  0000 L BNN
F 2 "Connector_PinSocket_2.54mm:PinSocket_2x20_P2.54mm_Vertical" H 2100 6025 50  0001 C CNN
F 3 "" H 2100 6025 50  0001 C CNN
	1    2100 6025
	1    0    0    -1  
$EndComp
Wire Wire Line
	3350 7175 3350 7375
Wire Wire Line
	3650 7175 3350 7175
Text Label 2700 6625 0    70   ~ 0
GND
Wire Wire Line
	2400 6625 2900 6625
Text Label 2700 6425 0    70   ~ 0
GND
Wire Wire Line
	2400 6425 2900 6425
Text Label 2700 5925 0    70   ~ 0
GND
Wire Wire Line
	2400 5925 2900 5925
Text Label 2700 5625 0    70   ~ 0
GND
Wire Wire Line
	2400 5625 2900 5625
Text Label 2700 5225 0    70   ~ 0
GND
Wire Wire Line
	2400 5225 2900 5225
Text Label 1200 6925 0    70   ~ 0
GND
Wire Wire Line
	1800 6925 1200 6925
Text Label 1200 6225 0    70   ~ 0
GND
Wire Wire Line
	1800 6225 1200 6225
Text Label 1200 5425 0    70   ~ 0
GND
Wire Wire Line
	1800 5425 1200 5425
Text Label 2900 6325 0    70   ~ 0
ID_SCL
Wire Wire Line
	1800 6325 1200 6325
Text Label 1200 6325 2    70   ~ 0
ID_SDA
Wire Wire Line
	2400 6325 2900 6325
Text Label 1200 5025 0    70   ~ 0
3V3
Wire Wire Line
	1800 5025 1200 5025
Text Label 2700 5025 0    70   ~ 0
I_5V
Connection ~ 2600 5025
Wire Wire Line
	2600 5125 2600 5025
Wire Wire Line
	2400 5125 2600 5125
Wire Wire Line
	2600 5025 2900 5025
Wire Wire Line
	2400 5025 2600 5025
Text Label 1200 5625 0    70   ~ 0
I2C_INT
Wire Wire Line
	1800 5625 1200 5625
Text Label 1200 5125 0    70   ~ 0
SDA
Wire Wire Line
	1800 5125 1200 5125
Text Label 1200 5225 0    70   ~ 0
SCL
Wire Wire Line
	1800 5225 1200 5225
Wire Wire Line
	11800 8775 11800 8675
Wire Wire Line
	11800 8475 11800 8675
Wire Wire Line
	11800 8675 12300 8675
Connection ~ 11800 8675
$EndSCHEMATC
