(module Connector_Phoenix_MC:PhoenixContact_MC_1,5_4-G-3.81_1x04_P3.81mm_Horizontal (layer F.Cu) (tedit 5B784ED1)
  (descr "Generic Phoenix Contact connector footprint for: MC_1,5/4-G-3.81; number of pins: 04; pin pitch: 3.81mm; Angled || order number: 1803293 8A 160V")
  (tags "phoenix_contact connector MC_01x04_G_3.81mm")
  (fp_text reference CON_3 (at 5.72 -3 180) (layer F.SilkS)
    (effects (font (size 1 1) (thickness 0.15)))
  )
  (fp_text value Conn_01x04 (at 5.72 9.2 180) (layer F.Fab)
    (effects (font (size 1 1) (thickness 0.15)))
  )
  (fp_text user %R (at 5.72 -0.5 180) (layer F.Fab)
    (effects (font (size 1 1) (thickness 0.15)))
  )
  (fp_line (start -2.71 -1.31) (end -2.71 8.11) (layer F.SilkS) (width 0.12))
  (fp_line (start -2.71 8.11) (end 14.14 8.11) (layer F.SilkS) (width 0.12))
  (fp_line (start 14.14 8.11) (end 14.14 -1.31) (layer F.SilkS) (width 0.12))
  (fp_line (start -2.71 -1.31) (end -1.05 -1.31) (layer F.SilkS) (width 0.12))
  (fp_line (start 14.14 -1.31) (end 12.48 -1.31) (layer F.SilkS) (width 0.12))
  (fp_line (start 1.05 -1.31) (end 2.76 -1.31) (layer F.SilkS) (width 0.12))
  (fp_line (start 4.86 -1.31) (end 6.57 -1.31) (layer F.SilkS) (width 0.12))
  (fp_line (start 8.67 -1.31) (end 10.38 -1.31) (layer F.SilkS) (width 0.12))
  (fp_line (start -2.6 -1.2) (end -2.6 8) (layer F.Fab) (width 0.1))
  (fp_line (start -2.6 8) (end 14.03 8) (layer F.Fab) (width 0.1))
  (fp_line (start 14.03 8) (end 14.03 -1.2) (layer F.Fab) (width 0.1))
  (fp_line (start 14.03 -1.2) (end -2.6 -1.2) (layer F.Fab) (width 0.1))
  (fp_line (start -2.71 4.8) (end 14.14 4.8) (layer F.SilkS) (width 0.12))
  (fp_line (start -3.21 -2.3) (end -3.21 8.5) (layer F.CrtYd) (width 0.05))
  (fp_line (start -3.21 8.5) (end 14.53 8.5) (layer F.CrtYd) (width 0.05))
  (fp_line (start 14.53 8.5) (end 14.53 -2.3) (layer F.CrtYd) (width 0.05))
  (fp_line (start 14.53 -2.3) (end -3.21 -2.3) (layer F.CrtYd) (width 0.05))
  (fp_line (start 0.3 -2.6) (end 0 -2) (layer F.SilkS) (width 0.12))
  (fp_line (start 0 -2) (end -0.3 -2.6) (layer F.SilkS) (width 0.12))
  (fp_line (start -0.3 -2.6) (end 0.3 -2.6) (layer F.SilkS) (width 0.12))
  (fp_line (start 0.8 -1.2) (end 0 0) (layer F.Fab) (width 0.1))
  (fp_line (start 0 0) (end -0.8 -1.2) (layer F.Fab) (width 0.1))
  (pad 4 thru_hole oval (at 11.43 0) (size 1.8 3.6) (drill 1.2) (layers *.Cu *.Mask))
  (pad 3 thru_hole oval (at 7.62 0) (size 1.8 3.6) (drill 1.2) (layers *.Cu *.Mask))
  (pad 2 thru_hole oval (at 3.81 0) (size 1.8 3.6) (drill 1.2) (layers *.Cu *.Mask))
  (pad 1 thru_hole roundrect (at 0 0) (size 1.8 3.6) (drill 1.2) (layers *.Cu *.Mask) (roundrect_rratio 0.138889))
  (model ${KISYS3DMOD}/Connector_Phoenix_MC.3dshapes/PhoenixContact_MC_1%2C5_4-G-3.81_1x04_P3.81mm_Horizontal.step
    (at (xyz 0 0 0))
    (scale (xyz 1 1 1))
    (rotate (xyz 0 0 0))
  )
)
