(module SWITCHING:DC_DC (layer F.Cu) (tedit 0)
  (fp_text reference U4 (at 0 0 180) (layer F.SilkS)
    (effects (font (size 1.27 1.27) (thickness 0.15)))
  )
  (fp_text value DC_DC-MP1584 (at 0 0 180) (layer F.Fab) hide
    (effects (font (size 1.27 1.27) (thickness 0.15)))
  )
  (fp_text user OUT+ (at 3.175 6.35 180) (layer F.SilkS)
    (effects (font (size 1.2065 1.2065) (thickness 0.1016)) (justify right bottom))
  )
  (fp_text user OUT- (at 3.175 -5.08 180) (layer F.SilkS)
    (effects (font (size 1.2065 1.2065) (thickness 0.1016)) (justify right bottom))
  )
  (fp_text user IN+ (at -6.985 6.35 180) (layer F.SilkS)
    (effects (font (size 1.2065 1.2065) (thickness 0.1016)) (justify right bottom))
  )
  (fp_text user IN- (at -6.985 -5.08 180) (layer F.SilkS)
    (effects (font (size 1.2065 1.2065) (thickness 0.1016)) (justify right bottom))
  )
  (fp_line (start 11.1 -8.4) (end -11.1 -8.4) (layer F.SilkS) (width 0.3048))
  (fp_line (start 11.1 8.4) (end 11.1 -8.4) (layer F.SilkS) (width 0.3048))
  (fp_line (start -11.1 8.4) (end 11.1 8.4) (layer F.SilkS) (width 0.3048))
  (fp_line (start -11.1 -8.4) (end -11.1 8.4) (layer F.SilkS) (width 0.3048))
  (pad OUT_P2 thru_hole rect (at 9.271 4.064) (size 1.5 1.5) (drill 0.9) (layers *.Cu *.Mask)
    (solder_mask_margin 0.0508))
  (pad OUT_P1 thru_hole rect (at 9.271 6.604) (size 1.5 1.5) (drill 0.9) (layers *.Cu *.Mask)
    (solder_mask_margin 0.0508))
  (pad OUT_M2 thru_hole circle (at 9.271 -4.064) (size 1.5 1.5) (drill 0.9) (layers *.Cu *.Mask)
    (solder_mask_margin 0.0508))
  (pad OUT_M1 thru_hole circle (at 9.271 -6.604) (size 1.5 1.5) (drill 0.9) (layers *.Cu *.Mask)
    (solder_mask_margin 0.0508))
  (pad IN_P1 thru_hole rect (at -9.271 6.604) (size 1.5 1.5) (drill 0.9) (layers *.Cu *.Mask)
    (solder_mask_margin 0.0508))
  (pad IN_M2 thru_hole circle (at -9.271 -4.064) (size 1.5 1.5) (drill 0.9) (layers *.Cu *.Mask)
    (solder_mask_margin 0.0508))
  (pad IN_M1 thru_hole circle (at -9.271 -6.604) (size 1.5 1.5) (drill 0.9) (layers *.Cu *.Mask)
    (solder_mask_margin 0.0508))
  (pad IN_P2 thru_hole rect (at -9.271 4.064) (size 1.5 1.5) (drill 0.9) (layers *.Cu *.Mask)
    (solder_mask_margin 0.0508))
  (model "${KICAD_USER_3DMOD}/dc-dc/D-SUN dc-dc step down converter.step"
    (offset (xyz 0 0 7))
    (scale (xyz 1 1 1))
    (rotate (xyz 0 0 0))
  )
)
