{
  "board": {
    "design_settings": {
      "defaults": {
        "board_outline_line_width": 0.15,
        "copper_line_width": 0.19999999999999998,
        "copper_text_italic": false,
        "copper_text_size_h": 1.5,
        "copper_text_size_v": 1.5,
        "copper_text_thickness": 0.3,
        "copper_text_upright": false,
        "courtyard_line_width": 0.049999999999999996,
        "dimension_precision": 4,
        "dimension_units": 3,
        "dimensions": {
          "arrow_length": 1270000,
          "extension_offset": 500000,
          "keep_text_aligned": true,
          "suppress_zeroes": false,
          "text_position": 0,
          "units_format": 1
        },
        "fab_line_width": 0.09999999999999999,
        "fab_text_italic": false,
        "fab_text_size_h": 1.0,
        "fab_text_size_v": 1.0,
        "fab_text_thickness": 0.15,
        "fab_text_upright": false,
        "other_line_width": 0.09999999999999999,
        "other_text_italic": false,
        "other_text_size_h": 1.0,
        "other_text_size_v": 1.0,
        "other_text_thickness": 0.15,
        "other_text_upright": false,
        "pads": {
          "drill": 0.0,
          "height": 2.0,
          "width": 2.0
        },
        "silk_line_width": 0.15,
        "silk_text_italic": false,
        "silk_text_size_h": 1.0,
        "silk_text_size_v": 1.0,
        "silk_text_thickness": 0.15,
        "silk_text_upright": false,
        "zones": {
          "45_degree_only": true,
          "min_clearance": 0.3
        }
      },
      "diff_pair_dimensions": [
        {
          "gap": 0.0,
          "via_gap": 0.0,
          "width": 0.0
        }
      ],
      "drc_exclusions": [
        "courtyards_overlap|112700001|100390001|129d82e3-260b-4efe-834b-cda9f8e3c1b6|1ec2ebfd-c346-44a3-b536-04ef468d62f8",
        "courtyards_overlap|112700001|82610001|78e17a01-26e3-468c-86a7-6890ed9e73c4|cfc07e4b-d234-462e-9250-a9a7d9d4386b",
        "courtyards_overlap|113573243|118170001|0f3327be-504d-4ab0-99d1-be6a192f46fa|fd193676-763a-4583-9b22-39ebe24c7ac4",
        "courtyards_overlap|118849999|102930001|129d82e3-260b-4efe-834b-cda9f8e3c1b6|82bb8354-11f6-4c5d-af54-da8277e41571",
        "courtyards_overlap|118849999|105460001|1da83280-6f9f-4b9f-a9be-273fd68fc7cf|82bb8354-11f6-4c5d-af54-da8277e41571",
        "courtyards_overlap|118849999|106000000|1da83280-6f9f-4b9f-a9be-273fd68fc7cf|1ec2ebfd-c346-44a3-b536-04ef468d62f8",
        "courtyards_overlap|118849999|106000000|1ec2ebfd-c346-44a3-b536-04ef468d62f8|82bb8354-11f6-4c5d-af54-da8277e41571",
        "courtyards_overlap|118849999|120710001|0f3327be-504d-4ab0-99d1-be6a192f46fa|9097ddf4-a696-49b2-80ad-265d3e36ccf0",
        "courtyards_overlap|118849999|123240001|9097ddf4-a696-49b2-80ad-265d3e36ccf0|9c5f31ef-7b3b-4f04-9323-c959c2c346b7",
        "courtyards_overlap|118849999|123780000|9097ddf4-a696-49b2-80ad-265d3e36ccf0|fd193676-763a-4583-9b22-39ebe24c7ac4",
        "courtyards_overlap|118849999|123780000|9c5f31ef-7b3b-4f04-9323-c959c2c346b7|fd193676-763a-4583-9b22-39ebe24c7ac4",
        "courtyards_overlap|118849999|85150001|cfc07e4b-d234-462e-9250-a9a7d9d4386b|d62d2efd-6221-46a6-8bed-1de5291d9393",
        "courtyards_overlap|118849999|87680001|cc2c69c0-9f17-4276-8146-58b6c95e3b1e|d62d2efd-6221-46a6-8bed-1de5291d9393",
        "courtyards_overlap|118849999|88220000|78e17a01-26e3-468c-86a7-6890ed9e73c4|cc2c69c0-9f17-4276-8146-58b6c95e3b1e",
        "courtyards_overlap|118849999|88220000|78e17a01-26e3-468c-86a7-6890ed9e73c4|d62d2efd-6221-46a6-8bed-1de5291d9393",
        "courtyards_overlap|119500415|87580661|2341b5aa-0eca-43d4-8181-73b3c76e285f|78e17a01-26e3-468c-86a7-6890ed9e73c4",
        "courtyards_overlap|119543259|122758698|aa27d57f-001b-4ebd-a90f-92b32c736c17|fd193676-763a-4583-9b22-39ebe24c7ac4",
        "courtyards_overlap|120872000|108524803|1ec2ebfd-c346-44a3-b536-04ef468d62f8|32c44a1b-804f-4de9-a79b-65b35640c610",
        "courtyards_overlap|60900001|72625001|657bab6e-c14e-4e9e-89de-a86ea5cd7f53|9030526b-a316-4714-978c-de3f5868f154",
        "courtyards_overlap|63900001|72625001|9030526b-a316-4714-978c-de3f5868f154|cba85b27-d6da-49db-823c-3cc2e1c1bcb8",
        "courtyards_overlap|64000001|138200001|09ecd405-220d-472a-a41a-95a24c0d22ad|6e55815f-46db-4b1d-abe8-b9fd5fd7f715",
        "courtyards_overlap|65059999|143970001|1d671802-4234-43f9-91df-8cd809f79621|6e55815f-46db-4b1d-abe8-b9fd5fd7f715",
        "courtyards_overlap|66540001|138200001|09ecd405-220d-472a-a41a-95a24c0d22ad|e6bbb64e-fad7-4e00-8706-29031cdb1a58",
        "courtyards_overlap|67599999|143970001|09ecd405-220d-472a-a41a-95a24c0d22ad|1d671802-4234-43f9-91df-8cd809f79621",
        "courtyards_overlap|69080001|138200001|e6bbb64e-fad7-4e00-8706-29031cdb1a58|ebd5fd7f-1a35-4629-89bc-6f43f96e82d3",
        "courtyards_overlap|70139999|143970001|1d671802-4234-43f9-91df-8cd809f79621|e6bbb64e-fad7-4e00-8706-29031cdb1a58",
        "courtyards_overlap|71620001|138200001|58c4c35c-18b2-4c03-8336-db7bb8a48697|ebd5fd7f-1a35-4629-89bc-6f43f96e82d3",
        "courtyards_overlap|72679999|143970001|1d671802-4234-43f9-91df-8cd809f79621|ebd5fd7f-1a35-4629-89bc-6f43f96e82d3",
        "courtyards_overlap|74160001|138200001|58c4c35c-18b2-4c03-8336-db7bb8a48697|596ceacf-8816-4ecb-893b-818aee945e45",
        "courtyards_overlap|75219999|143970001|1d671802-4234-43f9-91df-8cd809f79621|58c4c35c-18b2-4c03-8336-db7bb8a48697",
        "courtyards_overlap|77253059|108010001|08dd540d-321e-4ba0-b684-ccea10df2920|7adb4ca6-bddd-467d-88e7-a911656ab86d",
        "courtyards_overlap|77253059|125790001|a5f783e7-ea52-447e-bc98-90eb5ef612bc|eb736961-b4a4-4043-8026-bda1e90bba90",
        "courtyards_overlap|77253059|90230001|35b098d5-8aaa-4161-88c0-7b1568869a3c|c67550da-cf85-4eb8-b832-af7bbc3723cd",
        "courtyards_overlap|77759999|143970001|1d671802-4234-43f9-91df-8cd809f79621|596ceacf-8816-4ecb-893b-818aee945e45",
        "courtyards_overlap|79799999|105470001|08dd540d-321e-4ba0-b684-ccea10df2920|352bcebc-141f-4980-89ba-bfb1b24112d5",
        "courtyards_overlap|79799999|123250001|85957922-2310-4905-aa68-592606b00227|a5f783e7-ea52-447e-bc98-90eb5ef612bc",
        "courtyards_overlap|79799999|87690001|1a1199e3-c308-40fe-93a3-70e2ef79c7b2|35b098d5-8aaa-4161-88c0-7b1568869a3c",
        "courtyards_overlap|80950399|71713401|3102d4f6-8870-4ad1-b13b-f497357f5f21|f3b962ff-72fb-478e-9aab-f6a0bf2d0537",
        "courtyards_overlap|91387201|83676401|01db7f5b-cb42-4e41-b795-f3a08ad2bc37|658280c3-f1f5-4dae-8f94-3b94a2217bfb",
        "courtyards_overlap|92380001|77282401|658280c3-f1f5-4dae-8f94-3b94a2217bfb|7fed9ee8-035d-44c3-a220-a2db37b1c99c",
        "courtyards_overlap|92380001|77282401|7fed9ee8-035d-44c3-a220-a2db37b1c99c|658280c3-f1f5-4dae-8f94-3b94a2217bfb",
        "courtyards_overlap|92520001|77882401|658280c3-f1f5-4dae-8f94-3b94a2217bfb|7fed9ee8-035d-44c3-a220-a2db37b1c99c",
        "courtyards_overlap|92520001|77882401|7fed9ee8-035d-44c3-a220-a2db37b1c99c|658280c3-f1f5-4dae-8f94-3b94a2217bfb",
        "courtyards_overlap|92589224|95801801|658280c3-f1f5-4dae-8f94-3b94a2217bfb|dae719b9-2b36-4a6c-8399-1d5f2e561efd",
        "courtyards_overlap|92589224|95801801|dae719b9-2b36-4a6c-8399-1d5f2e561efd|658280c3-f1f5-4dae-8f94-3b94a2217bfb",
        "courtyards_overlap|92843070|96401801|658280c3-f1f5-4dae-8f94-3b94a2217bfb|dae719b9-2b36-4a6c-8399-1d5f2e561efd",
        "courtyards_overlap|92843070|96401801|dae719b9-2b36-4a6c-8399-1d5f2e561efd|658280c3-f1f5-4dae-8f94-3b94a2217bfb",
        "courtyards_overlap|93107201|93471801|658280c3-f1f5-4dae-8f94-3b94a2217bfb|c73edd70-bd8c-4d7b-bd21-e83476c26357",
        "courtyards_overlap|93120001|80852401|02c4dfc1-0446-4488-85cf-4d3c263354db|658280c3-f1f5-4dae-8f94-3b94a2217bfb",
        "malformed_courtyard|109972000|79842000|78e17a01-26e3-468c-86a7-6890ed9e73c4|00000000-0000-0000-0000-000000000000",
        "malformed_courtyard|109972000|97622000|1ec2ebfd-c346-44a3-b536-04ef468d62f8|00000000-0000-0000-0000-000000000000",
        "malformed_courtyard|131772000|114378000|1ec2ebfd-c346-44a3-b536-04ef468d62f8|00000000-0000-0000-0000-000000000000",
        "malformed_courtyard|131772000|132158000|fd193676-763a-4583-9b22-39ebe24c7ac4|00000000-0000-0000-0000-000000000000",
        "malformed_courtyard|131772000|96598000|78e17a01-26e3-468c-86a7-6890ed9e73c4|00000000-0000-0000-0000-000000000000",
        "malformed_courtyard|131808000|114378000|1ec2ebfd-c346-44a3-b536-04ef468d62f8|00000000-0000-0000-0000-000000000000",
        "malformed_courtyard|131808000|132158000|fd193676-763a-4583-9b22-39ebe24c7ac4|00000000-0000-0000-0000-000000000000",
        "malformed_courtyard|131808000|96598000|78e17a01-26e3-468c-86a7-6890ed9e73c4|00000000-0000-0000-0000-000000000000",
        "malformed_courtyard|58192000|115402000|7cfaea83-0d46-41bb-af1d-174623a78a7b|00000000-0000-0000-0000-000000000000",
        "malformed_courtyard|58192000|79842000|99ac923f-78c4-4f03-8904-9f70d791f7bc|00000000-0000-0000-0000-000000000000",
        "malformed_courtyard|58192000|97622000|e5d6a604-82c6-49f7-94a3-62bdbcf81a68|00000000-0000-0000-0000-000000000000",
        "malformed_courtyard|58228000|115402000|7cfaea83-0d46-41bb-af1d-174623a78a7b|00000000-0000-0000-0000-000000000000",
        "malformed_courtyard|58228000|132158000|7cfaea83-0d46-41bb-af1d-174623a78a7b|00000000-0000-0000-0000-000000000000",
        "malformed_courtyard|58228000|79842000|99ac923f-78c4-4f03-8904-9f70d791f7bc|00000000-0000-0000-0000-000000000000",
        "malformed_courtyard|58228000|96598000|99ac923f-78c4-4f03-8904-9f70d791f7bc|00000000-0000-0000-0000-000000000000",
        "malformed_courtyard|58228000|97622000|e5d6a604-82c6-49f7-94a3-62bdbcf81a68|00000000-0000-0000-0000-000000000000",
        "malformed_courtyard|80028000|114378000|e5d6a604-82c6-49f7-94a3-62bdbcf81a68|00000000-0000-0000-0000-000000000000",
        "malformed_courtyard|80028000|132158000|7cfaea83-0d46-41bb-af1d-174623a78a7b|00000000-0000-0000-0000-000000000000"
      ],
      "meta": {
        "filename": "board_design_settings.json",
        "version": 2
      },
      "rule_severities": {
        "annular_width": "error",
        "clearance": "error",
        "copper_edge_clearance": "error",
        "courtyards_overlap": "error",
        "diff_pair_gap_out_of_range": "error",
        "diff_pair_uncoupled_length_too_long": "error",
        "drill_out_of_range": "error",
        "duplicate_footprints": "warning",
        "extra_footprint": "warning",
        "footprint_type_mismatch": "error",
        "hole_clearance": "error",
        "hole_near_hole": "error",
        "invalid_outline": "error",
        "item_on_disabled_layer": "error",
        "items_not_allowed": "error",
        "length_out_of_range": "error",
        "malformed_courtyard": "error",
        "microvia_drill_out_of_range": "error",
        "missing_courtyard": "ignore",
        "missing_footprint": "warning",
        "net_conflict": "warning",
        "npth_inside_courtyard": "ignore",
        "padstack": "error",
        "pth_inside_courtyard": "ignore",
        "shorting_items": "error",
        "silk_over_copper": "ignore",
        "silk_overlap": "warning",
        "skew_out_of_range": "error",
        "through_hole_pad_without_hole": "error",
        "too_many_vias": "error",
        "track_dangling": "warning",
        "track_width": "error",
        "tracks_crossing": "error",
        "unconnected_items": "error",
        "unresolved_variable": "error",
        "via_dangling": "warning",
        "zone_has_empty_net": "error",
        "zones_intersect": "error"
      },
      "rule_severitieslegacy_courtyards_overlap": true,
      "rule_severitieslegacy_no_courtyard_defined": false,
      "rules": {
        "allow_blind_buried_vias": false,
        "allow_microvias": false,
        "max_error": 0.005,
        "min_clearance": 0.19999999999999998,
        "min_copper_edge_clearance": 0.19999999999999998,
        "min_hole_clearance": 0.32999999999999996,
        "min_hole_to_hole": 0.5,
        "min_microvia_diameter": 0.39999999999999997,
        "min_microvia_drill": 0.19999999999999998,
        "min_silk_clearance": 0.0,
        "min_through_hole_diameter": 0.19999999999999998,
        "min_track_width": 0.19999999999999998,
        "min_via_annular_width": 0.13,
        "min_via_diameter": 0.3,
        "use_height_for_length_calcs": true
      },
      "track_widths": [
        0.0,
        0.2,
        0.3,
        0.4,
        0.5,
        1.0,
        1.2,
        1.5,
        2.0,
        3.0,
        4.0,
        5.0
      ],
      "via_dimensions": [
        {
          "diameter": 0.0,
          "drill": 0.0
        },
        {
          "diameter": 0.4,
          "drill": 0.3
        },
        {
          "diameter": 0.6,
          "drill": 0.3
        },
        {
          "diameter": 0.8,
          "drill": 0.4
        }
      ],
      "zones_allow_external_fillets": false,
      "zones_use_no_outline": true
    },
    "layer_presets": []
  },
  "boards": [],
  "cvpcb": {
    "equivalence_files": []
  },
  "erc": {
    "erc_exclusions": [],
    "meta": {
      "version": 0
    },
    "pin_map": [
      [
        0,
        0,
        0,
        0,
        0,
        0,
        1,
        0,
        0,
        0,
        0,
        2
      ],
      [
        0,
        2,
        0,
        1,
        0,
        0,
        1,
        0,
        2,
        2,
        2,
        2
      ],
      [
        0,
        0,
        0,
        0,
        0,
        0,
        1,
        0,
        1,
        0,
        1,
        2
      ],
      [
        0,
        1,
        0,
        0,
        0,
        0,
        1,
        1,
        2,
        1,
        1,
        2
      ],
      [
        0,
        0,
        0,
        0,
        0,
        0,
        1,
        0,
        0,
        0,
        0,
        2
      ],
      [
        0,
        0,
        0,
        0,
        0,
        0,
        0,
        0,
        0,
        0,
        0,
        2
      ],
      [
        1,
        1,
        1,
        1,
        1,
        0,
        1,
        1,
        1,
        1,
        1,
        2
      ],
      [
        0,
        0,
        0,
        1,
        0,
        0,
        1,
        0,
        0,
        0,
        0,
        2
      ],
      [
        0,
        2,
        1,
        2,
        0,
        0,
        1,
        0,
        2,
        2,
        2,
        2
      ],
      [
        0,
        2,
        0,
        1,
        0,
        0,
        1,
        0,
        2,
        0,
        0,
        2
      ],
      [
        0,
        2,
        1,
        1,
        0,
        0,
        1,
        0,
        2,
        0,
        0,
        2
      ],
      [
        2,
        2,
        2,
        2,
        2,
        2,
        2,
        2,
        2,
        2,
        2,
        2
      ]
    ],
    "rule_severities": {
      "bus_definition_conflict": "error",
      "bus_entry_needed": "error",
      "bus_label_syntax": "error",
      "bus_to_bus_conflict": "error",
      "bus_to_net_conflict": "error",
      "different_unit_footprint": "error",
      "different_unit_net": "error",
      "duplicate_reference": "error",
      "duplicate_sheet_names": "error",
      "extra_units": "error",
      "global_label_dangling": "warning",
      "hier_label_mismatch": "error",
      "label_dangling": "error",
      "lib_symbol_issues": "warning",
      "multiple_net_names": "warning",
      "net_not_bus_member": "warning",
      "no_connect_connected": "warning",
      "no_connect_dangling": "warning",
      "pin_not_connected": "error",
      "pin_not_driven": "error",
      "pin_to_pin": "error",
      "power_pin_not_driven": "error",
      "similar_labels": "warning",
      "unannotated": "error",
      "unit_value_mismatch": "error",
      "unresolved_variable": "error",
      "wire_dangling": "error"
    }
  },
  "libraries": {
    "pinned_footprint_libs": [],
    "pinned_symbol_libs": []
  },
  "meta": {
    "filename": "M10NC02-20.kicad_pro",
    "version": 1
  },
  "net_settings": {
    "classes": [
      {
        "bus_width": 12.0,
        "clearance": 0.2,
        "diff_pair_gap": 0.25,
        "diff_pair_via_gap": 0.25,
        "diff_pair_width": 0.2,
        "line_style": 0,
        "microvia_diameter": 0.4,
        "microvia_drill": 0.2,
        "name": "Default",
        "pcb_color": "rgba(0, 0, 0, 0.000)",
        "schematic_color": "rgba(0, 0, 0, 0.000)",
        "track_width": 0.2,
        "via_diameter": 0.6,
        "via_drill": 0.3,
        "wire_width": 6.0
      },
      {
        "bus_width": 12.0,
        "clearance": 0.3,
        "diff_pair_gap": 0.25,
        "diff_pair_via_gap": 0.25,
        "diff_pair_width": 0.2,
        "line_style": 0,
        "microvia_diameter": 0.8,
        "microvia_drill": 0.4,
        "name": "+24",
        "nets": [
          "+24V"
        ],
        "pcb_color": "rgba(0, 0, 0, 0.000)",
        "schematic_color": "rgba(0, 0, 0, 0.000)",
        "track_width": 3.6,
        "via_diameter": 0.8,
        "via_drill": 0.4,
        "wire_width": 6.0
      },
      {
        "bus_width": 12.0,
        "clearance": 0.3,
        "diff_pair_gap": 0.25,
        "diff_pair_via_gap": 0.25,
        "diff_pair_width": 0.2,
        "line_style": 0,
        "microvia_diameter": 0.8,
        "microvia_drill": 0.4,
        "name": "GND PWR",
        "nets": [
          "GNDPWR"
        ],
        "pcb_color": "rgba(0, 0, 0, 0.000)",
        "schematic_color": "rgba(0, 0, 0, 0.000)",
        "track_width": 3.6,
        "via_diameter": 0.8,
        "via_drill": 0.4,
        "wire_width": 6.0
      },
      {
        "bus_width": 12.0,
        "clearance": 0.2,
        "diff_pair_gap": 0.25,
        "diff_pair_via_gap": 0.25,
        "diff_pair_width": 0.2,
        "line_style": 0,
        "microvia_diameter": 0.6,
        "microvia_drill": 0.3,
        "name": "Motors ",
        "nets": [
          "Net-(A1-Pad3)",
          "Net-(A1-Pad4)",
          "Net-(A1-Pad5)",
          "Net-(A1-Pad6)",
          "Net-(A2-Pad3)",
          "Net-(A2-Pad4)",
          "Net-(A2-Pad5)",
          "Net-(A2-Pad6)",
          "Net-(A3-Pad3)",
          "Net-(A3-Pad4)",
          "Net-(A3-Pad5)",
          "Net-(A3-Pad6)",
          "Net-(A4-Pad3)",
          "Net-(A4-Pad4)",
          "Net-(A4-Pad5)",
          "Net-(A4-Pad6)",
          "Net-(A5-Pad3)",
          "Net-(A5-Pad4)",
          "Net-(A5-Pad5)",
          "Net-(A5-Pad6)",
          "Net-(A6-Pad3)",
          "Net-(A6-Pad4)",
          "Net-(A6-Pad5)",
          "Net-(A6-Pad6)"
        ],
        "pcb_color": "rgba(0, 0, 0, 0.000)",
        "schematic_color": "rgba(0, 0, 0, 0.000)",
        "track_width": 0.8,
        "via_diameter": 0.8,
        "via_drill": 0.4,
        "wire_width": 6.0
      },
      {
        "bus_width": 12.0,
        "clearance": 0.2,
        "diff_pair_gap": 0.25,
        "diff_pair_via_gap": 0.25,
        "diff_pair_width": 0.2,
        "line_style": 0,
        "microvia_diameter": 0.6,
        "microvia_drill": 0.3,
        "name": "Power",
        "nets": [
          "+3V3",
          "+5V",
          "+5VP",
          "+VIN"
        ],
        "pcb_color": "rgba(0, 0, 0, 0.000)",
        "schematic_color": "rgba(0, 0, 0, 0.000)",
        "track_width": 0.3,
        "via_diameter": 0.8,
        "via_drill": 0.4,
        "wire_width": 6.0
      }
    ],
    "meta": {
      "version": 2
    },
    "net_colors": null
  },
  "pcbnew": {
    "last_paths": {
      "gencad": "",
      "idf": "",
      "netlist": "",
      "specctra_dsn": "",
      "step": "",
      "vrml": ""
    },
    "page_layout_descr_file": "m10cube.kicad_wks"
  },
  "schematic": {
    "annotate_start_num": 0,
    "drawing": {
      "default_bus_thickness": 12.0,
      "default_line_thickness": 6.0,
      "default_text_size": 50.0,
      "default_wire_thickness": 6.0,
      "field_names": [],
      "intersheets_ref_own_page": false,
      "intersheets_ref_prefix": "",
      "intersheets_ref_short": false,
      "intersheets_ref_show": false,
      "intersheets_ref_suffix": "",
      "junction_size_choice": 3,
      "label_size_ratio": 0.25,
      "pin_symbol_size": 25.0,
      "text_offset_ratio": 0.08
    },
    "legacy_lib_dir": "${KISYSLIB};${KIOENGLIB}",
    "legacy_lib_list": [],
    "meta": {
      "version": 1
    },
    "net_format_name": "KiCad",
    "ngspice": {
      "fix_include_paths": true,
      "fix_passive_vals": false,
      "meta": {
        "version": 0
      },
      "model_mode": 0,
      "workbook_filename": ""
    },
    "page_layout_descr_file": "m10cube.kicad_wks",
    "plot_directory": "PDF/",
    "spice_adjust_passive_values": false,
    "spice_external_command": "spice \"%I\"",
    "subpart_first_id": 65,
    "subpart_id_separator": 0
  },
  "sheets": [
    [
      "19bdbc35-5dd8-444f-a7a5-0d0b687be614",
      ""
    ],
    [
      "65b206c9-d101-414f-ac29-266d11b3c88b",
      "RASPI"
    ],
    [
      "a1edcf75-5f8a-44d4-bcc2-8b43dedf8d3d",
      "PICO"
    ],
    [
      "a6e16f41-e5da-4728-b95a-a0ea91f891b5",
      "STEPSTICK"
    ],
    [
      "ac58a97f-c6a4-48b8-a535-98c8a0992524",
      "SERIAL"
    ],
    [
      "ddfb0f43-0f02-465c-84c5-c5e421deff2d",
      "SPINDLE"
    ],
    [
      "a3534343-f5b2-4e84-8d7e-5ec338622b72",
      "CONNECTOR"
    ],
    [
      "fb0cff91-8679-408f-8364-929599931d62",
      "CANBUS"
    ],
    [
      "5a9dde1c-57da-41e0-9d21-9463e33cd0f3",
      "RS485"
    ]
  ],
  "text_variables": {
    "DESCRIPTION": "PICO 6 AXIS CNC",
    "LICENSE": "Licensed under the  CERN OHL P 2.0 or later",
    "ORGANIZATION": "WIZcube",
    "SUBVERSION": "0",
    "TITLE": "M10NC02",
    "VERSION": "20"
  }
}
