(module EIAJ-SOIC-8 (layer F.Cu) (tedit 0)
  (fp_text reference IC2 (at -3.2004 1.6002 -270) (layer F.SilkS)
    (effects (font (size 0.57912 0.57912) (thickness 0.046329)) (justify left bottom))
  )
  (fp_text value AT24C32 (at 3.683 1.5748 -270) (layer F.Fab)
    (effects (font (size 0.57912 0.57912) (thickness 0.046329)) (justify left bottom))
  )
  (fp_line (start 2.286 -2.667) (end -2.286 -2.667) (layer F.SilkS) (width 0.127))
  (fp_line (start 2.286 2.667) (end -2.286 2.667) (layer F.SilkS) (width 0.127))
  (fp_line (start 2.667 -2.286) (end 2.667 2.2098) (layer F.SilkS) (width 0.127))
  (fp_line (start 2.667 2.2098) (end 2.667 2.286) (layer F.SilkS) (width 0.127))
  (fp_arc (start 2.286 -2.286) (end 2.667 -2.286) (angle -90) (layer F.SilkS) (width 0.127))
  (fp_arc (start -2.286 -2.286) (end -2.286 -2.667) (angle -90) (layer F.SilkS) (width 0.127))
  (fp_arc (start -2.286 2.286) (end -2.667 2.286) (angle -90) (layer F.SilkS) (width 0.127))
  (fp_arc (start 2.286 2.286) (end 2.286 2.667) (angle -90) (layer F.SilkS) (width 0.127))
  (fp_arc (start -2.6416 0) (end -2.6416 -0.508) (angle 180) (layer F.SilkS) (width 0.1524))
  (fp_line (start -2.667 2.286) (end -2.667 0.508) (layer F.SilkS) (width 0.127))
  (fp_line (start -2.667 -2.286) (end -2.667 -0.508) (layer F.SilkS) (width 0.127))
  (fp_line (start 2.667 2.2098) (end -2.6416 2.2098) (layer F.SilkS) (width 0.127))
  (fp_poly (pts (xy 1.676 -2.6862) (xy 2.184 -2.6862) (xy 2.184 -3.8292) (xy 1.676 -3.8292)) (layer F.Fab) (width 0))
  (fp_poly (pts (xy 0.406 -2.6862) (xy 0.914 -2.6862) (xy 0.914 -3.8292) (xy 0.406 -3.8292)) (layer F.Fab) (width 0))
  (fp_poly (pts (xy -0.864 -2.6862) (xy -0.356 -2.6862) (xy -0.356 -3.8292) (xy -0.864 -3.8292)) (layer F.Fab) (width 0))
  (fp_poly (pts (xy -2.134 -2.6862) (xy -1.626 -2.6862) (xy -1.626 -3.8292) (xy -2.134 -3.8292)) (layer F.Fab) (width 0))
  (fp_poly (pts (xy -2.179 3.8118) (xy -1.671 3.8118) (xy -1.671 2.6688) (xy -2.179 2.6688)) (layer F.Fab) (width 0))
  (fp_poly (pts (xy -0.921 3.8148) (xy -0.413 3.8148) (xy -0.413 2.6718) (xy -0.921 2.6718)) (layer F.Fab) (width 0))
  (fp_poly (pts (xy 0.37 3.8148) (xy 0.878 3.8148) (xy 0.878 2.6718) (xy 0.37 2.6718)) (layer F.Fab) (width 0))
  (fp_poly (pts (xy 1.649 3.8118) (xy 2.157 3.8118) (xy 2.157 2.6688) (xy 1.649 2.6688)) (layer F.Fab) (width 0))
  (pad P$5 smd rect (at 1.905 -3.576 90) (size 2.15 0.65) (layers F.Cu F.Paste F.Mask)
    (solder_mask_margin 0.0508))
  (pad P$6 smd rect (at 0.635 -3.576 90) (size 2.15 0.65) (layers F.Cu F.Paste F.Mask)
    (solder_mask_margin 0.0508))
  (pad P$7 smd rect (at -0.635 -3.576 90) (size 2.15 0.65) (layers F.Cu F.Paste F.Mask)
    (solder_mask_margin 0.0508))
  (pad P$8 smd rect (at -1.905 -3.576 90) (size 2.15 0.65) (layers F.Cu F.Paste F.Mask)
    (solder_mask_margin 0.0508))
  (pad P$1 smd rect (at -1.905 3.576 90) (size 2.15 0.65) (layers F.Cu F.Paste F.Mask)
    (solder_mask_margin 0.0508))
  (pad P$2 smd rect (at -0.635 3.576 90) (size 2.15 0.65) (layers F.Cu F.Paste F.Mask)
    (solder_mask_margin 0.0508))
  (pad P$3 smd rect (at 0.635 3.576 90) (size 2.15 0.65) (layers F.Cu F.Paste F.Mask)
    (solder_mask_margin 0.0508))
  (pad P$4 smd rect (at 1.905 3.576 90) (size 2.15 0.65) (layers F.Cu F.Paste F.Mask)
    (solder_mask_margin 0.0508))
)
