M48
; DRILL file {KiCad 6.0.0-rc1-unknown-a3b4210bdd~144~ubuntu21.10.1} date Δευ 29 Νοε 2021 02:19:35 μμ EET
; FORMAT={-:-/ absolute / metric / decimal}
; #@! TF.CreationDate,2021-11-29T14:19:35+02:00
; #@! TF.GenerationSoftware,Kicad,Pcbnew,6.0.0-rc1-unknown-a3b4210bdd~144~ubuntu21.10.1
; #@! TF.FileFunction,NonPlated,1,4,NPTH
FMAT,2
METRIC
%
G90
G05
T0
M30
