(module "Digitales IO-Modul_d:SMC" (layer F.Cu) (tedit 0)
  (descr <b>DIODE</b>)
  (fp_text reference D10 (at -3.4082 4.1086) (layer F.SilkS)
    (effects (font (size 0.57912 0.57912) (thickness 0.046329)) (justify left bottom))
  )
  (fp_text value MBR540T3G (at -0.665 4.1718) (layer F.Fab)
    (effects (font (size 0.57912 0.57912) (thickness 0.046329)) (justify left bottom))
  )
  (fp_line (start -3.5606 -3.105) (end 3.5606 -3.105) (layer F.SilkS) (width 0.1016))
  (fp_line (start -3.5606 3.105) (end 3.5606 3.105) (layer F.SilkS) (width 0.1016))
  (fp_line (start -3.5606 3.105) (end -3.5606 -3.105) (layer F.Fab) (width 0.1016))
  (fp_line (start 3.5606 3.105) (end 3.5606 -3.105) (layer F.Fab) (width 0.1016))
  (fp_line (start 0.543 -1) (end -0.83 0) (layer F.SilkS) (width 0.2032))
  (fp_line (start -0.83 0) (end 0.543 1) (layer F.SilkS) (width 0.2032))
  (fp_line (start 0.543 1) (end 0.543 -1) (layer F.SilkS) (width 0.2032))
  (fp_poly (pts (xy -4.094 1.0922) (xy -3.5606 1.0922) (xy -3.5606 -1.0922) (xy -4.094 -1.0922)) (layer F.Fab) (width 0))
  (fp_poly (pts (xy 3.5606 1.0922) (xy 4.094 1.0922) (xy 4.094 -1.0922) (xy 3.5606 -1.0922)) (layer F.Fab) (width 0))
  (fp_poly (pts (xy -2.1 3.1) (xy -0.85 3.1) (xy -0.85 -3.1) (xy -2.1 -3.1)) (layer F.SilkS) (width 0))
  (pad C smd rect (at -3.7 0) (size 2.8 3.8) (layers F.Cu F.Paste F.Mask)
    (solder_mask_margin 0.0508))
  (pad A smd rect (at 3.7 0) (size 2.8 3.8) (layers F.Cu F.Paste F.Mask)
    (solder_mask_margin 0.0508))
  (model ${KISYS3DMOD}/Diode_SMD.3dshapes/D_SMA.wrl
    (at (xyz 0 0 0))
    (scale (xyz 1 1 1))
    (rotate (xyz 0 0 0))
  )
)
