[
    {
        "id": "2f77d22b73559230",
        "type": "tab",
        "label": "GREENHOUSE",
        "disabled": false,
        "info": "",
        "env": []
    },
    {
        "id": "680fccfef78ffd40",
        "type": "debug",
        "z": "2f77d22b73559230",
        "name": "MOISTURE 1",
        "active": true,
        "tosidebar": true,
        "console": false,
        "tostatus": true,
        "complete": "payload",
        "targetType": "msg",
        "statusVal": "payload",
        "statusType": "auto",
        "x": 360,
        "y": 120,
        "wires": []
    },
    {
        "id": "c4654cc88593ec09",
        "type": "debug",
        "z": "2f77d22b73559230",
        "name": "SOIL 1",
        "active": true,
        "tosidebar": true,
        "console": false,
        "tostatus": true,
        "complete": "payload",
        "targetType": "msg",
        "statusVal": "payload",
        "statusType": "auto",
        "x": 340,
        "y": 180,
        "wires": []
    },
    {
        "id": "19d44781700bad4c",
        "type": "mqtt in",
        "z": "2f77d22b73559230",
        "name": "SOIL 1",
        "topic": "soil_1",
        "qos": "2",
        "datatype": "auto",
        "broker": "3ee528c7cc322e3a",
        "nl": false,
        "rap": true,
        "rh": 0,
        "inputs": 0,
        "x": 150,
        "y": 180,
        "wires": [
            [
                "c4654cc88593ec09"
            ]
        ]
    },
    {
        "id": "3996be7337eb83ee",
        "type": "ui_gauge",
        "z": "2f77d22b73559230",
        "name": "MOISTURE 1",
        "group": "865a3316ce870d2a",
        "order": 1,
        "width": 2,
        "height": 2,
        "gtype": "gage",
        "title": "TOMATO 1",
        "label": "%",
        "format": "{{value}}",
        "min": 0,
        "max": "100",
        "colors": [
            "#986a44",
            "#e6e600",
            "#00b500"
        ],
        "seg1": "",
        "seg2": "",
        "className": "",
        "x": 360,
        "y": 80,
        "wires": [],
        "info": "Close to Tommato 1"
    },
    {
        "id": "6e3dfc5d32e1d6b3",
        "type": "debug",
        "z": "2f77d22b73559230",
        "name": "MOISTURE 2",
        "active": true,
        "tosidebar": true,
        "console": false,
        "tostatus": true,
        "complete": "payload",
        "targetType": "msg",
        "statusVal": "payload",
        "statusType": "auto",
        "x": 780,
        "y": 120,
        "wires": []
    },
    {
        "id": "8bcde05728ee3b46",
        "type": "mqtt in",
        "z": "2f77d22b73559230",
        "name": "MOISTURE 2",
        "topic": "moisture_2",
        "qos": "2",
        "datatype": "auto",
        "broker": "5efd2263999e66ea",
        "nl": false,
        "rap": true,
        "rh": 0,
        "inputs": 0,
        "x": 570,
        "y": 120,
        "wires": [
            [
                "6e3dfc5d32e1d6b3",
                "84d796271a1fecec"
            ]
        ]
    },
    {
        "id": "84d796271a1fecec",
        "type": "ui_gauge",
        "z": "2f77d22b73559230",
        "name": "MOISTURE 2",
        "group": "865a3316ce870d2a",
        "order": 2,
        "width": 2,
        "height": 2,
        "gtype": "gage",
        "title": "TOMATO 2",
        "label": "units",
        "format": "{{value}}",
        "min": 0,
        "max": "100",
        "colors": [
            "#945818",
            "#e6e600",
            "#00b500"
        ],
        "seg1": "",
        "seg2": "",
        "className": "",
        "x": 780,
        "y": 80,
        "wires": []
    },
    {
        "id": "8b80d403f1131729",
        "type": "mqtt in",
        "z": "2f77d22b73559230",
        "name": "SOIL 2",
        "topic": "soil_2",
        "qos": "2",
        "datatype": "auto",
        "broker": "3ee528c7cc322e3a",
        "nl": false,
        "rap": true,
        "rh": 0,
        "inputs": 0,
        "x": 590,
        "y": 180,
        "wires": [
            [
                "3101ebc4467ee083"
            ]
        ]
    },
    {
        "id": "3101ebc4467ee083",
        "type": "debug",
        "z": "2f77d22b73559230",
        "name": "SOIL 2",
        "active": true,
        "tosidebar": true,
        "console": false,
        "tostatus": true,
        "complete": "payload",
        "targetType": "msg",
        "statusVal": "payload",
        "statusType": "auto",
        "x": 760,
        "y": 180,
        "wires": []
    },
    {
        "id": "2a96cd19ea23e335",
        "type": "mqtt in",
        "z": "2f77d22b73559230",
        "name": "MOISTURE 3",
        "topic": "moisture_3",
        "qos": "2",
        "datatype": "auto",
        "broker": "5efd2263999e66ea",
        "nl": false,
        "rap": true,
        "rh": 0,
        "inputs": 0,
        "x": 130,
        "y": 300,
        "wires": [
            [
                "12b9019aa3240eb8",
                "f92a9313ada82f4c"
            ]
        ]
    },
    {
        "id": "12b9019aa3240eb8",
        "type": "debug",
        "z": "2f77d22b73559230",
        "name": "MOISTURE 3",
        "active": true,
        "tosidebar": true,
        "console": false,
        "tostatus": true,
        "complete": "payload",
        "targetType": "msg",
        "statusVal": "payload",
        "statusType": "auto",
        "x": 360,
        "y": 300,
        "wires": []
    },
    {
        "id": "3f8afe85cb5bc346",
        "type": "debug",
        "z": "2f77d22b73559230",
        "name": "SOIL 3",
        "active": true,
        "tosidebar": true,
        "console": false,
        "tostatus": true,
        "complete": "payload",
        "targetType": "msg",
        "statusVal": "payload",
        "statusType": "auto",
        "x": 340,
        "y": 360,
        "wires": []
    },
    {
        "id": "6789e777efd17576",
        "type": "mqtt in",
        "z": "2f77d22b73559230",
        "name": "SOIL 3",
        "topic": "soil_3",
        "qos": "2",
        "datatype": "auto",
        "broker": "3ee528c7cc322e3a",
        "nl": false,
        "rap": true,
        "rh": 0,
        "inputs": 0,
        "x": 150,
        "y": 360,
        "wires": [
            [
                "3f8afe85cb5bc346"
            ]
        ]
    },
    {
        "id": "f92a9313ada82f4c",
        "type": "ui_gauge",
        "z": "2f77d22b73559230",
        "name": "MOISTURE 3",
        "group": "865a3316ce870d2a",
        "order": 3,
        "width": 2,
        "height": 2,
        "gtype": "gage",
        "title": "TOMATO 3",
        "label": "units",
        "format": "{{value}}",
        "min": 0,
        "max": "100",
        "colors": [
            "#945818",
            "#e6e600",
            "#00b500"
        ],
        "seg1": "",
        "seg2": "",
        "className": "",
        "x": 360,
        "y": 260,
        "wires": []
    },
    {
        "id": "1b6e5aa6cc5afef5",
        "type": "debug",
        "z": "2f77d22b73559230",
        "name": "MOISTURE 4",
        "active": true,
        "tosidebar": true,
        "console": false,
        "tostatus": true,
        "complete": "payload",
        "targetType": "msg",
        "statusVal": "payload",
        "statusType": "auto",
        "x": 780,
        "y": 300,
        "wires": []
    },
    {
        "id": "79c72b7416e4c1d6",
        "type": "mqtt in",
        "z": "2f77d22b73559230",
        "name": "MOISTURE 4",
        "topic": "moisture_4",
        "qos": "2",
        "datatype": "auto",
        "broker": "5efd2263999e66ea",
        "nl": false,
        "rap": true,
        "rh": 0,
        "inputs": 0,
        "x": 570,
        "y": 300,
        "wires": [
            [
                "1b6e5aa6cc5afef5",
                "c59ca5be9ff38782"
            ]
        ]
    },
    {
        "id": "c59ca5be9ff38782",
        "type": "ui_gauge",
        "z": "2f77d22b73559230",
        "name": "MOISTURE 4",
        "group": "865a3316ce870d2a",
        "order": 4,
        "width": 2,
        "height": 2,
        "gtype": "gage",
        "title": "TOMATO 4",
        "label": "units",
        "format": "{{value}}",
        "min": 0,
        "max": "100",
        "colors": [
            "#945818",
            "#e6e600",
            "#00b500"
        ],
        "seg1": "",
        "seg2": "",
        "className": "",
        "x": 780,
        "y": 260,
        "wires": []
    },
    {
        "id": "44878c848f8735f9",
        "type": "mqtt in",
        "z": "2f77d22b73559230",
        "name": "SOIL 4",
        "topic": "soil_4",
        "qos": "2",
        "datatype": "auto",
        "broker": "3ee528c7cc322e3a",
        "nl": false,
        "rap": true,
        "rh": 0,
        "inputs": 0,
        "x": 590,
        "y": 360,
        "wires": [
            [
                "47b89ea5053d04b9"
            ]
        ]
    },
    {
        "id": "47b89ea5053d04b9",
        "type": "debug",
        "z": "2f77d22b73559230",
        "name": "SOIL 4",
        "active": true,
        "tosidebar": true,
        "console": false,
        "tostatus": true,
        "complete": "payload",
        "targetType": "msg",
        "statusVal": "payload",
        "statusType": "auto",
        "x": 760,
        "y": 360,
        "wires": []
    },
    {
        "id": "28600549aee0f87d",
        "type": "aedes broker",
        "z": "2f77d22b73559230",
        "name": "MQTT BROKER",
        "mqtt_port": 1883,
        "mqtt_ws_bind": "port",
        "mqtt_ws_port": "",
        "mqtt_ws_path": "",
        "cert": "",
        "key": "",
        "certname": "",
        "keyname": "",
        "dburl": "",
        "usetls": false,
        "x": 560,
        "y": 40,
        "wires": [
            [],
            []
        ]
    },
    {
        "id": "8668dba0d142530d",
        "type": "mqtt in",
        "z": "2f77d22b73559230",
        "name": "MOISTURE 2",
        "topic": "moisture_1",
        "qos": "2",
        "datatype": "auto",
        "broker": "5efd2263999e66ea",
        "nl": false,
        "rap": true,
        "rh": 0,
        "inputs": 0,
        "x": 130,
        "y": 120,
        "wires": [
            [
                "3996be7337eb83ee",
                "680fccfef78ffd40",
                "23bf8b08508d793a"
            ]
        ]
    },
    {
        "id": "23bf8b08508d793a",
        "type": "ui_widget_humidity_tree",
        "z": "2f77d22b73559230",
        "group": "2d456270c9d23ef6",
        "order": 0,
        "width": "2",
        "height": "2",
        "name": "PLANT 1",
        "title": "MY PLANT 1",
        "colorHumidMax": "#006000",
        "colorHumidMin": "#945818",
        "x": 340,
        "y": 40,
        "wires": []
    },
    {
        "id": "714d7ed1e6e98583",
        "type": "ui_spacer",
        "z": "2f77d22b73559230",
        "name": "spacer",
        "group": "19b56f372da746f3",
        "order": 3,
        "width": 1,
        "height": 1
    },
    {
        "id": "3ee528c7cc322e3a",
        "type": "mqtt-broker",
        "name": "MQTT BROKER",
        "broker": "localhost",
        "port": "1883",
        "clientid": "",
        "autoConnect": true,
        "usetls": false,
        "protocolVersion": "4",
        "keepalive": "60",
        "cleansession": true,
        "birthTopic": "",
        "birthQos": "0",
        "birthPayload": "",
        "birthMsg": {},
        "closeTopic": "",
        "closeQos": "0",
        "closePayload": "",
        "closeMsg": {},
        "willTopic": "",
        "willQos": "0",
        "willPayload": "",
        "willMsg": {},
        "sessionExpiry": ""
    },
    {
        "id": "865a3316ce870d2a",
        "type": "ui_group",
        "name": "SOIL MOISTURE",
        "tab": "15a14c83ec1ba718",
        "order": 1,
        "disp": true,
        "width": "8",
        "collapse": false,
        "className": ""
    },
    {
        "id": "5efd2263999e66ea",
        "type": "mqtt-broker",
        "name": "",
        "broker": "localhost",
        "port": "1883",
        "clientid": "",
        "autoConnect": true,
        "usetls": false,
        "protocolVersion": "4",
        "keepalive": "60",
        "cleansession": true,
        "birthTopic": "",
        "birthQos": "0",
        "birthPayload": "",
        "birthMsg": {},
        "closeTopic": "",
        "closeQos": "0",
        "closePayload": "",
        "closeMsg": {},
        "willTopic": "",
        "willQos": "0",
        "willPayload": "",
        "willMsg": {},
        "sessionExpiry": ""
    },
    {
        "id": "2d456270c9d23ef6",
        "type": "ui_group",
        "name": "PLANTS",
        "tab": "15a14c83ec1ba718",
        "order": 2,
        "disp": true,
        "width": 8,
        "collapse": false,
        "className": ""
    },
    {
        "id": "15a14c83ec1ba718",
        "type": "ui_tab",
        "name": "TOMATOS",
        "icon": "dashboard",
        "order": 1,
        "disabled": false,
        "hidden": false
    }
]