G04 #@! TF.GenerationSoftware,KiCad,Pcbnew,5.1.6-c6e7f7d~87~ubuntu20.04.1*
G04 #@! TF.CreationDate,2020-10-01T18:22:05+03:00*
G04 #@! TF.ProjectId,M10SE01-01,4d313053-4530-4312-9d30-312e6b696361,01*
G04 #@! TF.SameCoordinates,Original*
G04 #@! TF.FileFunction,Profile,NP*
%FSLAX46Y46*%
G04 Gerber Fmt 4.6, Leading zero omitted, Abs format (unit mm)*
G04 Created by KiCad (PCBNEW 5.1.6-c6e7f7d~87~ubuntu20.04.1) date 2020-10-01 18:22:05*
%MOMM*%
%LPD*%
G01*
G04 APERTURE LIST*
G04 #@! TA.AperFunction,Profile*
%ADD10C,0.050000*%
G04 #@! TD*
G04 APERTURE END LIST*
D10*
X142228300Y-126317000D02*
X59228300Y-126317000D01*
X55219600Y-80518000D02*
X55228300Y-122317000D01*
X50800000Y-72390000D02*
X50800000Y-80518000D01*
X50800000Y-80518000D02*
X55219600Y-80518000D01*
X55219600Y-72390000D02*
X50800000Y-72390000D01*
X146222200Y-110248700D02*
X146701800Y-109927100D01*
X146701800Y-109927100D02*
X150130800Y-109927100D01*
X150130800Y-109927100D02*
X150611800Y-109419100D01*
X150611800Y-109419100D02*
X150611800Y-95195100D01*
X150611800Y-95195100D02*
X150003800Y-94687100D01*
X150003800Y-94687100D02*
X146574800Y-94687100D01*
X146574800Y-94687100D02*
X146230000Y-94330000D01*
X146228300Y-122317000D02*
G75*
G02*
X142228300Y-126317000I-4000000J0D01*
G01*
X146228300Y-122317000D02*
X146222200Y-110248700D01*
X55219600Y-72390000D02*
X55228300Y-39317000D01*
X146230000Y-94330000D02*
X146228300Y-39317000D01*
X59228300Y-35317000D02*
X142228300Y-35317000D01*
X59228300Y-126317000D02*
G75*
G02*
X55228300Y-122317000I0J4000000D01*
G01*
X142228300Y-35317000D02*
G75*
G02*
X146228300Y-39317000I0J-4000000D01*
G01*
X55228300Y-39317000D02*
G75*
G02*
X59228300Y-35317000I4000000J0D01*
G01*
M02*
