(module Relais-Modul_a:1X02S (layer F.Cu) (tedit 0)
  (fp_text reference JP1 (at -2.6162 -1.8288) (layer F.SilkS)
    (effects (font (size 0.57912 0.57912) (thickness 0.057912)) (justify left bottom))
  )
  (fp_text value JUMPER-2'S' (at -2.54 3.175) (layer F.Fab)
    (effects (font (size 1.2065 1.2065) (thickness 0.09652)) (justify left bottom))
  )
  (fp_line (start -1.905 -1.27) (end -0.635 -1.27) (layer F.SilkS) (width 0.2032))
  (fp_line (start -0.635 -1.27) (end 0 -0.635) (layer F.SilkS) (width 0.2032))
  (fp_line (start 0 0.635) (end -0.635 1.27) (layer F.SilkS) (width 0.2032))
  (fp_line (start 0 -0.635) (end 0.635 -1.27) (layer F.SilkS) (width 0.2032))
  (fp_line (start 0.635 -1.27) (end 1.905 -1.27) (layer F.SilkS) (width 0.2032))
  (fp_line (start 1.905 -1.27) (end 2.54 -0.635) (layer F.SilkS) (width 0.2032))
  (fp_line (start 2.54 0.635) (end 1.905 1.27) (layer F.SilkS) (width 0.2032))
  (fp_line (start 1.905 1.27) (end 0.635 1.27) (layer F.SilkS) (width 0.2032))
  (fp_line (start 0.635 1.27) (end 0 0.635) (layer F.SilkS) (width 0.2032))
  (fp_line (start -2.54 -0.635) (end -2.54 0.635) (layer F.SilkS) (width 0.2032))
  (fp_line (start -1.905 -1.27) (end -2.54 -0.635) (layer F.SilkS) (width 0.2032))
  (fp_line (start -2.54 0.635) (end -1.905 1.27) (layer F.SilkS) (width 0.2032))
  (fp_line (start -0.635 1.27) (end -1.905 1.27) (layer F.SilkS) (width 0.2032))
  (fp_line (start 2.54 -0.635) (end 2.54 0.635) (layer F.SilkS) (width 0.2032))
  (fp_poly (pts (xy 1.016 0.254) (xy 1.524 0.254) (xy 1.524 -0.254) (xy 1.016 -0.254)) (layer F.Fab) (width 0))
  (fp_poly (pts (xy -1.524 0.254) (xy -1.016 0.254) (xy -1.016 -0.254) (xy -1.524 -0.254)) (layer F.Fab) (width 0))
  (pad 1 thru_hole circle (at -1.27 0 90) (size 1.8796 1.8796) (drill 1.016) (layers *.Cu *.Mask)
    (solder_mask_margin 0.0508))
  (pad 2 thru_hole circle (at 1.27 0 90) (size 1.8796 1.8796) (drill 1.016) (layers *.Cu *.Mask)
    (solder_mask_margin 0.0508))
  (pad P$1 smd rect (at 0 0) (size 1.27 0.508) (layers B.Cu B.Paste B.Mask)
    (solder_mask_margin 0.0508))
)
