(module Relais-Modul_a:PANASONIC_F (layer F.Cu) (tedit 0)
  (descr "<b>Panasonic Aluminium Electrolytic Capacitor VS-Serie Package F</b>")
  (fp_text reference C10 (at -0.0228 2.7132 -180) (layer F.SilkS)
    (effects (font (size 0.57912 0.57912) (thickness 0.046329)) (justify left bottom))
  )
  (fp_text value "47µ / 35V" (at -0.9626 1.6384 -180) (layer F.Fab)
    (effects (font (size 0.57912 0.57912) (thickness 0.046329)) (justify left bottom))
  )
  (fp_arc (start 0 0) (end -3.85 -0.9) (angle 153.684915) (layer F.SilkS) (width 0.1016))
  (fp_arc (start 0 0) (end -3.85 0.9) (angle -153.684915) (layer F.SilkS) (width 0.1016))
  (fp_line (start -4.1 -4.1) (end 1.8 -4.1) (layer F.Fab) (width 0.1016))
  (fp_line (start 1.8 -4.1) (end 4.1 -1.8) (layer F.Fab) (width 0.1016))
  (fp_line (start 4.1 -1.8) (end 4.1 1.8) (layer F.Fab) (width 0.1016))
  (fp_line (start 4.1 1.8) (end 1.8 4.1) (layer F.Fab) (width 0.1016))
  (fp_line (start 1.8 4.1) (end -4.1 4.1) (layer F.Fab) (width 0.1016))
  (fp_line (start -4.1 4.1) (end -4.1 -4.1) (layer F.Fab) (width 0.1016))
  (fp_line (start -4.1 -1) (end -4.1 -4.1) (layer F.SilkS) (width 0.1016))
  (fp_line (start -4.1 -4.1) (end 1.8 -4.1) (layer F.SilkS) (width 0.1016))
  (fp_line (start 1.8 -4.1) (end 4.1 -1.8) (layer F.SilkS) (width 0.1016))
  (fp_line (start 4.1 -1.8) (end 4.1 -1) (layer F.SilkS) (width 0.1016))
  (fp_line (start 4.1 1) (end 4.1 1.8) (layer F.SilkS) (width 0.1016))
  (fp_line (start 4.1 1.8) (end 1.8 4.1) (layer F.SilkS) (width 0.1016))
  (fp_line (start 1.8 4.1) (end -4.1 4.1) (layer F.SilkS) (width 0.1016))
  (fp_line (start -4.1 4.1) (end -4.1 1) (layer F.SilkS) (width 0.1016))
  (fp_line (start -2.2 -3.25) (end -2.2 3.25) (layer F.Fab) (width 0.1016))
  (fp_circle (center 0 0) (end 4 0) (layer F.Fab) (width 0.001))
  (fp_circle (center 0 0) (end 3.95 0) (layer F.Fab) (width 0.1016))
  (fp_poly (pts (xy -4.85 0.45) (xy -3.9 0.45) (xy -3.9 -0.45) (xy -4.85 -0.45)) (layer F.Fab) (width 0))
  (fp_poly (pts (xy 3.9 0.45) (xy 4.85 0.45) (xy 4.85 -0.45) (xy 3.9 -0.45)) (layer F.Fab) (width 0))
  (fp_poly (pts (xy -2.25 -3.2) (xy -3 -2.5) (xy -3.6 -1.5) (xy -3.85 -0.65)
    (xy -3.85 0.65) (xy -3.55 1.6) (xy -2.95 2.55) (xy -2.25 3.2)
    (xy -2.25 -3.15)) (layer F.Fab) (width 0))
  (pad - smd rect (at -3.55 0) (size 4 1.6) (layers F.Cu F.Paste F.Mask)
    (solder_mask_margin 0.0508))
  (pad + smd rect (at 3.55 0) (size 4 1.6) (layers F.Cu F.Paste F.Mask)
    (solder_mask_margin 0.0508))
  (model ${KISYS3DMOD}/Capacitor_SMD.3dshapes/C_Elec_6.3x5.4.step
    (at (xyz 0 0 0))
    (scale (xyz 1 1 1))
    (rotate (xyz 0 0 180))
  )
)
